+,0.5,0,45,tcp,,,,,,
-,0.5,0,45,tcp,,,,,,
r,0.51032,0,45,tcp,,,,,,
+,0.52064,0,45,tcp,,,,-,897,Packets Delivered
-,0.52064,0,45,tcp,,,,+,1302,Packets Added
+,0.52064,0,45,tcp,,,,r,897,Packets Re
-,0.52896,0,45,tcp,,,,c,0,Packet Collisions
r,0.53896,0,45,tcp,,,,d,406,Packet Drops
r,0.54728,0,45,tcp,,,,,,
+,0.54928,0,45,tcp,,,,,,
-,0.54928,0,45,tcp,,,,,,
+,0.54928,0,45,tcp,,,,,,
+,0.5576,0,45,tcp,,,,,,
+,0.5576,0,45,tcp,,,,,,
-,0.5576,0,45,tcp,,,,,,
-,0.56592,0,45,tcp,,,,,,
r,0.5676,0,45,tcp,,,,,,
-,0.57424,0,45,tcp,,,,,,
r,0.57592,0,45,tcp,,,,,,
+,0.57792,0,45,tcp,,,,,,
+,0.57792,0,45,tcp,,,,,,
-,0.58256,0,45,tcp,,,,,,
r,0.58424,0,45,tcp,,,,,,
+,0.58624,0,45,tcp,,,,,,
+,0.58624,0,45,tcp,,,,,,
-,0.59088,0,45,tcp,,,,,,
r,0.59256,0,45,tcp,,,,,,
+,0.59456,0,45,tcp,,,,,,
+,0.59456,0,45,tcp,,,,,,
-,0.5992,0,45,tcp,,,,,,
r,0.60088,0,45,tcp,,,,,,
+,0.60288,0,45,tcp,,,,,,
+,0.60288,0,45,tcp,,,,,,
-,0.60752,0,45,tcp,,,,,,
r,0.6092,0,45,tcp,,,,,,
+,0.6112,0,45,tcp,,,,,,
+,0.6112,0,45,tcp,,,,,,
-,0.61584,0,45,tcp,,,,,,
r,0.61752,0,45,tcp,,,,,,
+,0.61952,0,45,tcp,,,,,,
+,0.61952,0,45,tcp,,,,,,
-,0.62416,0,45,tcp,,,,,,
r,0.62584,0,45,tcp,,,,,,
+,0.62784,0,45,tcp,,,,,,
+,0.62784,0,45,tcp,,,,,,
-,0.63248,0,45,tcp,,,,,,
r,0.63416,0,45,tcp,,,,,,
+,0.63616,0,45,tcp,,,,,,
+,0.63616,0,45,tcp,,,,,,
-,0.6408,0,45,tcp,,,,,,
r,0.64248,0,45,tcp,,,,,,
+,0.64448,0,45,tcp,,,,,,
+,0.64448,0,45,tcp,,,,,,
-,0.64912,0,45,tcp,,,,,,
r,0.6508,0,45,tcp,,,,,,
+,0.6528,0,45,tcp,,,,,,
+,0.6528,0,45,tcp,,,,,,
-,0.65744,0,45,tcp,,,,,,
r,0.65912,0,45,tcp,,,,,,
+,0.66112,0,45,tcp,,,,,,
+,0.66112,0,45,tcp,,,,,,
-,0.66576,0,45,tcp,,,,,,
r,0.66744,0,45,tcp,,,,,,
+,0.66944,0,45,tcp,,,,,,
+,0.66944,0,45,tcp,,,,,,
-,0.67408,0,45,tcp,,,,,,
r,0.67576,0,45,tcp,,,,,,
+,0.67776,0,45,tcp,,,,,,
+,0.67776,0,45,tcp,,,,,,
-,0.6824,0,45,tcp,,,,,,
r,0.68408,0,45,tcp,,,,,,
+,0.68608,0,45,tcp,,,,,,
+,0.68608,0,45,tcp,,,,,,
-,0.69072,0,45,tcp,,,,,,
r,0.6924,0,45,tcp,,,,,,
+,0.6944,0,45,tcp,,,,,,
+,0.6944,0,45,tcp,,,,,,
-,0.69904,0,45,tcp,,,,,,
r,0.70072,0,45,tcp,,,,,,
+,0.70272,0,45,tcp,,,,,,
+,0.70272,0,45,tcp,,,,,,
-,0.70736,0,45,tcp,,,,,,
r,0.70904,0,45,tcp,,,,,,
+,0.71104,0,45,tcp,,,,,,
-,0.71568,0,45,tcp,,,,,,
r,0.71736,0,45,tcp,,,,,,
+,0.71936,0,45,tcp,,,,,,
-,0.724,0,45,tcp,,,,,,
r,0.72568,0,45,tcp,,,,,,
+,0.72768,0,45,tcp,,,,,,
-,0.73232,0,45,tcp,,,,,,
r,0.734,0,45,tcp,,,,,,
+,0.736,0,45,tcp,,,,,,
-,0.74064,0,45,tcp,,,,,,
r,0.74232,0,45,tcp,,,,,,
+,0.74432,0,45,tcp,,,,,,
-,0.74896,0,45,tcp,,,,,,
r,0.75064,0,45,tcp,,,,,,
+,0.75264,0,45,tcp,,,,,,
-,0.75728,0,45,tcp,,,,,,
r,0.75896,0,45,tcp,,,,,,
+,0.76096,0,45,tcp,,,,,,
-,0.7656,0,45,tcp,,,,,,
r,0.76728,0,45,tcp,,,,,,
+,0.76928,0,45,tcp,,,,,,
-,0.77392,0,45,tcp,,,,,,
r,0.7756,0,45,tcp,,,,,,
+,0.7776,0,45,tcp,,,,,,
-,0.78224,0,45,tcp,,,,,,
r,0.78392,0,45,tcp,,,,,,
+,0.78592,0,45,tcp,,,,,,
-,0.79056,0,45,tcp,,,,,,
r,0.79224,0,45,tcp,,,,,,
+,0.79424,0,45,tcp,,,,,,
-,0.79888,0,45,tcp,,,,,,
r,0.80056,0,45,tcp,,,,,,
+,0.80256,0,45,tcp,,,,,,
-,0.8072,0,45,tcp,,,,,,
r,0.80888,0,45,tcp,,,,,,
+,0.81088,0,45,tcp,,,,,,
-,0.81552,0,45,tcp,,,,,,
r,0.8172,0,45,tcp,,,,,,
+,0.8192,0,45,tcp,,,,,,
-,0.82384,0,45,tcp,,,,,,
r,0.82552,0,45,tcp,,,,,,
+,0.82752,0,45,tcp,,,,,,
-,0.83216,0,45,tcp,,,,,,
r,0.83384,0,45,tcp,,,,,,
+,0.83584,0,45,tcp,,,,,,
-,0.84048,0,45,tcp,,,,,,
r,0.84216,0,45,tcp,,,,,,
+,0.84416,0,45,tcp,,,,,,
-,0.8488,0,45,tcp,,,,,,
r,0.85048,0,45,tcp,,,,,,
+,0.85248,0,45,tcp,,,,,,
-,0.85712,0,45,tcp,,,,,,
r,0.8588,0,45,tcp,,,,,,
+,0.8608,0,45,tcp,,,,,,
-,0.86544,0,45,tcp,,,,,,
r,0.86712,0,45,tcp,,,,,,
+,0.86912,0,45,tcp,,,,,,
-,0.87376,0,45,tcp,,,,,,
r,0.87544,0,45,tcp,,,,,,
+,0.87744,0,45,tcp,,,,,,
-,0.88208,0,45,tcp,,,,,,
r,0.88376,0,45,tcp,,,,,,
+,0.88576,0,45,tcp,,,,,,
-,0.8904,0,45,tcp,,,,,,
r,0.89208,0,45,tcp,,,,,,
+,0.89408,0,45,tcp,,,,,,
-,0.89872,0,45,tcp,,,,,,
r,0.9004,0,45,tcp,,,,,,
+,0.9024,0,45,tcp,,,,,,
-,0.90704,0,45,tcp,,,,,,
r,0.90872,0,45,tcp,,,,,,
+,0.91072,0,45,tcp,,,,,,
-,0.91536,0,45,tcp,,,,,,
r,0.91704,0,45,tcp,,,,,,
+,0.91904,0,45,tcp,,,,,,
-,0.92368,0,45,tcp,,,,,,
r,0.92536,0,45,tcp,,,,,,
+,0.92736,0,45,tcp,,,,,,
-,0.932,0,45,tcp,,,,,,
r,0.93368,0,45,tcp,,,,,,
+,0.93568,0,45,tcp,,,,,,
-,0.94032,0,45,tcp,,,,,,
r,0.942,0,45,tcp,,,,,,
+,0.944,0,45,tcp,,,,,,
-,0.94864,0,45,tcp,,,,,,
r,0.95032,0,45,tcp,,,,,,
+,0.95232,0,45,tcp,,,,,,
-,0.95696,0,45,tcp,,,,,,
r,0.95864,0,45,tcp,,,,,,
+,0.96064,0,45,tcp,,,,,,
-,0.96528,0,45,tcp,,,,,,
r,0.96696,0,45,tcp,,,,,,
+,0.96896,0,45,tcp,,,,,,
-,0.9736,0,45,tcp,,,,,,
r,0.97528,0,45,tcp,,,,,,
+,0.97728,0,45,tcp,,,,,,
-,0.98192,0,45,tcp,,,,,,
r,0.9836,0,45,tcp,,,,,,
+,0.9856,0,45,tcp,,,,,,
-,0.99024,0,45,tcp,,,,,,
r,0.99192,0,45,tcp,,,,,,
+,0.99392,0,45,tcp,,,,,,
-,0.99856,0,45,tcp,,,,,,
r,1.00024,0,45,tcp,,,,,,
+,1.00224,0,45,tcp,,,,,,
-,1.00688,0,45,tcp,,,,,,
r,1.00856,0,45,tcp,,,,,,
+,1.01056,0,45,tcp,,,,,,
-,1.0152,0,45,tcp,,,,,,
r,1.01688,0,45,tcp,,,,,,
+,1.01888,0,45,tcp,,,,,,
-,1.02352,0,45,tcp,,,,,,
r,1.0252,0,45,tcp,,,,,,
+,1.0272,0,45,tcp,,,,,,
-,1.03184,0,45,tcp,,,,,,
r,1.03352,0,45,tcp,,,,,,
+,1.03552,0,45,tcp,,,,,,
-,1.04016,0,45,tcp,,,,,,
r,1.04184,0,45,tcp,,,,,,
+,1.04384,0,45,tcp,,,,,,
-,1.04848,0,45,tcp,,,,,,
r,1.05016,0,45,tcp,,,,,,
+,1.05216,0,45,tcp,,,,,,
-,1.0568,0,45,tcp,,,,,,
r,1.05848,0,45,tcp,,,,,,
+,1.06048,0,45,tcp,,,,,,
-,1.06512,0,45,tcp,,,,,,
r,1.0668,0,45,tcp,,,,,,
+,1.0688,0,45,tcp,,,,,,
-,1.07344,0,45,tcp,,,,,,
r,1.07512,0,45,tcp,,,,,,
+,1.07712,0,45,tcp,,,,,,
-,1.08176,0,45,tcp,,,,,,
r,1.08344,0,45,tcp,,,,,,
+,1.08544,0,45,tcp,,,,,,
-,1.09008,0,45,tcp,,,,,,
r,1.09176,0,45,tcp,,,,,,
+,1.09376,0,45,tcp,,,,,,
-,1.0984,0,45,tcp,,,,,,
r,1.10008,0,45,tcp,,,,,,
+,1.10208,0,45,tcp,,,,,,
-,1.10672,0,45,tcp,,,,,,
r,1.1084,0,45,tcp,,,,,,
+,1.1104,0,45,tcp,,,,,,
-,1.11504,0,45,tcp,,,,,,
r,1.11672,0,45,tcp,,,,,,
+,1.11872,0,45,tcp,,,,,,
-,1.12336,0,45,tcp,,,,,,
r,1.12504,0,45,tcp,,,,,,
+,1.12704,0,45,tcp,,,,,,
-,1.13168,0,45,tcp,,,,,,
r,1.13336,0,45,tcp,,,,,,
+,1.13536,0,45,tcp,,,,,,
-,1.14,0,45,tcp,,,,,,
r,1.14168,0,45,tcp,,,,,,
+,1.14368,0,45,tcp,,,,,,
-,1.14832,0,45,tcp,,,,,,
r,1.15,0,45,tcp,,,,,,
+,1.152,0,45,tcp,,,,,,
-,1.15664,0,45,tcp,,,,,,
r,1.15832,0,45,tcp,,,,,,
+,1.16032,0,45,tcp,,,,,,
-,1.16496,0,45,tcp,,,,,,
r,1.16664,0,45,tcp,,,,,,
+,1.16864,0,45,tcp,,,,,,
-,1.17328,0,45,tcp,,,,,,
r,1.17496,0,45,tcp,,,,,,
+,1.17696,0,45,tcp,,,,,,
-,1.1816,0,45,tcp,,,,,,
r,1.18328,0,45,tcp,,,,,,
+,1.18528,0,45,tcp,,,,,,
-,1.18992,0,45,tcp,,,,,,
r,1.1916,0,45,tcp,,,,,,
+,1.1936,0,45,tcp,,,,,,
-,1.19824,0,45,tcp,,,,,,
r,1.19992,0,45,tcp,,,,,,
+,1.20192,0,45,tcp,,,,,,
-,1.20656,0,45,tcp,,,,,,
r,1.20824,0,45,tcp,,,,,,
+,1.21024,0,45,tcp,,,,,,
-,1.21488,0,45,tcp,,,,,,
r,1.21656,0,45,tcp,,,,,,
+,1.21856,0,45,tcp,,,,,,
-,1.2232,0,45,tcp,,,,,,
r,1.22488,0,45,tcp,,,,,,
+,1.22688,0,45,tcp,,,,,,
-,1.23152,0,45,tcp,,,,,,
r,1.2332,0,45,tcp,,,,,,
+,1.2352,0,45,tcp,,,,,,
-,1.23984,0,45,tcp,,,,,,
r,1.24152,0,45,tcp,,,,,,
+,1.24352,0,45,tcp,,,,,,
-,1.24816,0,45,tcp,,,,,,
r,1.24984,0,45,tcp,,,,,,
+,1.25184,0,45,tcp,,,,,,
-,1.25648,0,45,tcp,,,,,,
r,1.25816,0,45,tcp,,,,,,
+,1.26016,0,45,tcp,,,,,,
-,1.2648,0,45,tcp,,,,,,
r,1.26648,0,45,tcp,,,,,,
+,1.26848,0,45,tcp,,,,,,
-,1.27312,0,45,tcp,,,,,,
r,1.2748,0,45,tcp,,,,,,
+,1.2768,0,45,tcp,,,,,,
-,1.28144,0,45,tcp,,,,,,
r,1.28312,0,45,tcp,,,,,,
+,1.28512,0,45,tcp,,,,,,
-,1.28976,0,45,tcp,,,,,,
r,1.29144,0,45,tcp,,,,,,
+,1.29344,0,45,tcp,,,,,,
-,1.29808,0,45,tcp,,,,,,
r,1.29976,0,45,tcp,,,,,,
+,1.30176,0,45,tcp,,,,,,
-,1.3064,0,45,tcp,,,,,,
r,1.30808,0,45,tcp,,,,,,
+,1.31008,0,45,tcp,,,,,,
-,1.31472,0,45,tcp,,,,,,
r,1.3164,0,45,tcp,,,,,,
+,1.3184,0,45,tcp,,,,,,
-,1.32304,0,45,tcp,,,,,,
r,1.32472,0,45,tcp,,,,,,
+,1.32672,0,45,tcp,,,,,,
-,1.33136,0,45,tcp,,,,,,
r,1.33304,0,45,tcp,,,,,,
+,1.33504,0,45,tcp,,,,,,
-,1.33968,0,45,tcp,,,,,,
r,1.34136,0,45,tcp,,,,,,
+,1.34336,0,45,tcp,,,,,,
-,1.348,0,45,tcp,,,,,,
r,1.34968,0,45,tcp,,,,,,
+,1.35168,0,45,tcp,,,,,,
-,1.35632,0,45,tcp,,,,,,
r,1.358,0,45,tcp,,,,,,
+,1.36,0,45,tcp,,,,,,
-,1.36464,0,45,tcp,,,,,,
r,1.36632,0,45,tcp,,,,,,
+,1.36832,0,45,tcp,,,,,,
-,1.37296,0,45,tcp,,,,,,
r,1.37464,0,45,tcp,,,,,,
+,1.37664,0,45,tcp,,,,,,
-,1.38128,0,45,tcp,,,,,,
r,1.38296,0,45,tcp,,,,,,
+,1.38496,0,45,tcp,,,,,,
-,1.3896,0,45,tcp,,,,,,
r,1.39128,0,45,tcp,,,,,,
+,1.39328,0,45,tcp,,,,,,
-,1.39792,0,45,tcp,,,,,,
r,1.3996,0,45,tcp,,,,,,
+,1.4016,0,45,tcp,,,,,,
-,1.40624,0,45,tcp,,,,,,
r,1.40792,0,45,tcp,,,,,,
+,1.40992,0,45,tcp,,,,,,
-,1.41456,0,45,tcp,,,,,,
r,1.41624,0,45,tcp,,,,,,
+,1.41824,0,45,tcp,,,,,,
-,1.42288,0,45,tcp,,,,,,
r,1.42456,0,45,tcp,,,,,,
+,1.42656,0,45,tcp,,,,,,
-,1.4312,0,45,tcp,,,,,,
r,1.43288,0,45,tcp,,,,,,
+,1.43488,0,45,tcp,,,,,,
-,1.43952,0,45,tcp,,,,,,
r,1.4412,0,45,tcp,,,,,,
+,1.4432,0,45,tcp,,,,,,
-,1.44784,0,45,tcp,,,,,,
r,1.44952,0,45,tcp,,,,,,
+,1.45152,0,45,tcp,,,,,,
-,1.45616,0,45,tcp,,,,,,
r,1.45784,0,45,tcp,,,,,,
+,1.45984,0,45,tcp,,,,,,
-,1.46448,0,45,tcp,,,,,,
r,1.46616,0,45,tcp,,,,,,
+,1.46816,0,45,tcp,,,,,,
-,1.4728,0,45,tcp,,,,,,
r,1.47448,0,45,tcp,,,,,,
+,1.47648,0,45,tcp,,,,,,
-,1.48112,0,45,tcp,,,,,,
r,1.4828,0,45,tcp,,,,,,
+,1.4848,0,45,tcp,,,,,,
-,1.48944,0,45,tcp,,,,,,
r,1.49112,0,45,tcp,,,,,,
+,1.49312,0,45,tcp,,,,,,
-,1.49776,0,45,tcp,,,,,,
r,1.49944,0,45,tcp,,,,,,
+,1.50144,0,45,tcp,,,,,,
-,1.50608,0,45,tcp,,,,,,
r,1.50776,0,45,tcp,,,,,,
+,1.50976,0,45,tcp,,,,,,
-,1.5144,0,45,tcp,,,,,,
r,1.51608,0,45,tcp,,,,,,
+,1.51808,0,45,tcp,,,,,,
-,1.52272,0,45,tcp,,,,,,
r,1.5244,0,45,tcp,,,,,,
+,1.5264,0,45,tcp,,,,,,
-,1.53104,0,45,tcp,,,,,,
r,1.53272,0,45,tcp,,,,,,
+,1.53472,0,45,tcp,,,,,,
-,1.53936,0,45,tcp,,,,,,
r,1.54104,0,45,tcp,,,,,,
+,1.54304,0,45,tcp,,,,,,
-,1.54768,0,45,tcp,,,,,,
r,1.54936,0,45,tcp,,,,,,
+,1.55136,0,45,tcp,,,,,,
-,1.556,0,45,tcp,,,,,,
r,1.55768,0,45,tcp,,,,,,
+,1.55968,0,45,tcp,,,,,,
-,1.56432,0,45,tcp,,,,,,
r,1.566,0,45,tcp,,,,,,
+,1.568,0,45,tcp,,,,,,
-,1.57264,0,45,tcp,,,,,,
r,1.57432,0,45,tcp,,,,,,
+,1.57632,0,45,tcp,,,,,,
-,1.58096,0,45,tcp,,,,,,
r,1.58264,0,45,tcp,,,,,,
+,1.58464,0,45,tcp,,,,,,
-,1.58928,0,45,tcp,,,,,,
r,1.59096,0,45,tcp,,,,,,
+,1.59296,0,45,tcp,,,,,,
-,1.5976,0,45,tcp,,,,,,
r,1.59928,0,45,tcp,,,,,,
+,1.60128,0,45,tcp,,,,,,
-,1.60592,0,45,tcp,,,,,,
r,1.6076,0,45,tcp,,,,,,
+,1.6096,0,45,tcp,,,,,,
-,1.61424,0,45,tcp,,,,,,
r,1.61592,0,45,tcp,,,,,,
+,1.61792,0,45,tcp,,,,,,
-,1.62256,0,45,tcp,,,,,,
r,1.62424,0,45,tcp,,,,,,
+,1.62624,0,45,tcp,,,,,,
-,1.63088,0,45,tcp,,,,,,
r,1.63256,0,45,tcp,,,,,,
+,1.63456,0,45,tcp,,,,,,
-,1.6392,0,45,tcp,,,,,,
r,1.64088,0,45,tcp,,,,,,
+,1.64288,0,45,tcp,,,,,,
-,1.64752,0,45,tcp,,,,,,
r,1.6492,0,45,tcp,,,,,,
+,1.6512,0,45,tcp,,,,,,
-,1.65584,0,45,tcp,,,,,,
r,1.65752,0,45,tcp,,,,,,
+,1.65952,0,45,tcp,,,,,,
-,1.66416,0,45,tcp,,,,,,
r,1.66584,0,45,tcp,,,,,,
+,1.66784,0,45,tcp,,,,,,
-,1.67248,0,45,tcp,,,,,,
r,1.67416,0,45,tcp,,,,,,
+,1.67616,0,45,tcp,,,,,,
-,1.6808,0,45,tcp,,,,,,
r,1.68248,0,45,tcp,,,,,,
+,1.68448,0,45,tcp,,,,,,
-,1.68912,0,45,tcp,,,,,,
r,1.6908,0,45,tcp,,,,,,
+,1.6928,0,45,tcp,,,,,,
-,1.69744,0,45,tcp,,,,,,
r,1.69912,0,45,tcp,,,,,,
+,1.70112,0,45,tcp,,,,,,
-,1.70576,0,45,tcp,,,,,,
r,1.70744,0,45,tcp,,,,,,
+,1.70944,0,45,tcp,,,,,,
-,1.71408,0,45,tcp,,,,,,
r,1.71576,0,45,tcp,,,,,,
+,1.71776,0,45,tcp,,,,,,
-,1.7224,0,45,tcp,,,,,,
r,1.72408,0,45,tcp,,,,,,
-,1.73072,0,45,tcp,,,,,,
r,1.7324,0,45,tcp,,,,,,
-,1.73904,0,45,tcp,,,,,,
r,1.74072,0,45,tcp,,,,,,
-,1.74736,0,45,tcp,,,,,,
r,1.74904,0,45,tcp,,,,,,
-,1.75568,0,45,tcp,,,,,,
r,1.75736,0,45,tcp,,,,,,
+,1.761852,0,45,tcp,,,,,,
d,1.761852,0,45,tcp,,,,,,
+,1.762172,0,45,tcp,,,,,,
d,1.762172,0,45,tcp,,,,,,
+,1.762492,0,45,tcp,,,,,,
d,1.762492,0,45,tcp,,,,,,
+,1.762812,0,45,tcp,,,,,,
d,1.762812,0,45,tcp,,,,,,
+,1.763132,0,45,tcp,,,,,,
d,1.763132,0,45,tcp,,,,,,
-,1.764,0,45,tcp,,,,,,
r,1.76568,0,45,tcp,,,,,,
+,1.76768,0,45,tcp,,,,,,
-,1.77232,0,45,tcp,,,,,,
r,1.774,0,45,tcp,,,,,,
+,1.776,0,45,tcp,,,,,,
-,1.78064,0,45,tcp,,,,,,
r,1.78232,0,45,tcp,,,,,,
+,1.78432,0,45,tcp,,,,,,
-,1.78896,0,45,tcp,,,,,,
r,1.79064,0,45,tcp,,,,,,
+,1.79264,0,45,tcp,,,,,,
-,1.79728,0,45,tcp,,,,,,
r,1.79896,0,45,tcp,,,,,,
+,1.80096,0,45,tcp,,,,,,
-,1.8056,0,45,tcp,,,,,,
r,1.80728,0,45,tcp,,,,,,
+,1.80928,0,45,tcp,,,,,,
-,1.81392,0,45,tcp,,,,,,
r,1.8156,0,45,tcp,,,,,,
+,1.8176,0,45,tcp,,,,,,
-,1.82224,0,45,tcp,,,,,,
r,1.82392,0,45,tcp,,,,,,
+,1.82592,0,45,tcp,,,,,,
-,1.83056,0,45,tcp,,,,,,
r,1.83224,0,45,tcp,,,,,,
+,1.83424,0,45,tcp,,,,,,
-,1.83888,0,45,tcp,,,,,,
r,1.84056,0,45,tcp,,,,,,
+,1.84256,0,45,tcp,,,,,,
-,1.8472,0,45,tcp,,,,,,
r,1.84888,0,45,tcp,,,,,,
+,1.85088,0,45,tcp,,,,,,
r,1.8572,0,45,tcp,,,,,,
+,1.8592,0,45,tcp,,,,,,
r,1.86552,0,45,tcp,,,,,,
+,1.86752,0,45,tcp,,,,,,
+,1.87584,0,45,tcp,,,,,,
-,1.88112,0,45,tcp,,,,,,
-,1.89024,0,45,tcp,,,,,,
-,1.89856,0,45,tcp,,,,,,
r,1.89944,0,45,tcp,,,,,,
-,1.90688,0,45,tcp,,,,,,
r,1.90856,0,45,tcp,,,,,,
+,1.90976,0,45,tcp,,,,,,
-,1.9152,0,45,tcp,,,,,,
r,1.91688,0,45,tcp,,,,,,
-,1.92352,0,45,tcp,,,,,,
r,1.9252,0,45,tcp,,,,,,
-,1.93184,0,45,tcp,,,,,,
r,1.93352,0,45,tcp,,,,,,
+,1.93552,0,45,tcp,,,,,,
-,1.94016,0,45,tcp,,,,,,
r,1.94184,0,45,tcp,,,,,,
-,1.94848,0,45,tcp,,,,,,
r,1.95016,0,45,tcp,,,,,,
-,1.9568,0,45,tcp,,,,,,
r,1.95848,0,45,tcp,,,,,,
-,1.96512,0,45,tcp,,,,,,
r,1.9668,0,45,tcp,,,,,,
-,1.97344,0,45,tcp,,,,,,
r,1.97512,0,45,tcp,,,,,,
-,1.98176,0,45,tcp,,,,,,
r,1.98344,0,45,tcp,,,,,,
-,1.99008,0,45,tcp,,,,,,
r,1.99176,0,45,tcp,,,,,,
-,1.9984,0,45,tcp,,,,,,
+,2,0,19,cbr,,,,,,
-,2,0,19,cbr,,,,,,
r,2.00008,0,45,tcp,,,,,,
+,2.004,0,19,cbr,,,,,,
-,2.00672,0,45,tcp,,,,,,
-,2.008,0,19,cbr,,,,,,
+,2.008,0,19,cbr,,,,,,
r,2.0084,0,45,tcp,,,,,,
+,2.012,0,19,cbr,,,,,,
-,2.01504,0,45,tcp,,,,,,
-,2.016,0,19,cbr,,,,,,
+,2.016,0,19,cbr,,,,,,
r,2.01672,0,45,tcp,,,,,,
r,2.018,0,19,cbr,,,,,,
+,2.02,0,19,cbr,,,,,,
-,2.024,0,19,cbr,,,,,,
+,2.024,0,19,cbr,,,,,,
r,2.02504,0,45,tcp,,,,,,
r,2.026,0,19,cbr,,,,,,
+,2.028,0,19,cbr,,,,,,
-,2.032,0,19,cbr,,,,,,
+,2.032,0,19,cbr,,,,,,
r,2.03336,0,45,tcp,,,,,,
r,2.034,0,19,cbr,,,,,,
+,2.036,0,19,cbr,,,,,,
-,2.04,0,19,cbr,,,,,,
+,2.04,0,19,cbr,,,,,,
r,2.042,0,19,cbr,,,,,,
+,2.04368,0,45,tcp,,,,,,
-,2.04368,0,45,tcp,,,,,,
+,2.04368,0,45,tcp,,,,,,
+,2.044,0,19,cbr,,,,,,
-,2.048,0,19,cbr,,,,,,
+,2.048,0,19,cbr,,,,,,
r,2.05,0,19,cbr,,,,,,
+,2.052,0,19,cbr,,,,,,
-,2.052,0,45,tcp,,,,,,
-,2.056,0,19,cbr,,,,,,
+,2.056,0,19,cbr,,,,,,
r,2.058,0,19,cbr,,,,,,
+,2.06,0,19,cbr,,,,,,
r,2.062,0,45,tcp,,,,,,
-,2.064,0,19,cbr,,,,,,
+,2.064,0,19,cbr,,,,,,
r,2.066,0,19,cbr,,,,,,
+,2.068,0,19,cbr,,,,,,
r,2.07032,0,45,tcp,,,,,,
-,2.072,0,19,cbr,,,,,,
+,2.072,0,19,cbr,,,,,,
+,2.07232,0,45,tcp,,,,,,
-,2.07232,0,45,tcp,,,,,,
+,2.07232,0,45,tcp,,,,,,
r,2.074,0,19,cbr,,,,,,
+,2.076,0,19,cbr,,,,,,
-,2.08,0,19,cbr,,,,,,
+,2.08,0,19,cbr,,,,,,
+,2.08064,0,45,tcp,,,,,,
+,2.08064,0,45,tcp,,,,,,
-,2.08064,0,45,tcp,,,,,,
r,2.082,0,19,cbr,,,,,,
+,2.084,0,19,cbr,,,,,,
-,2.088,0,19,cbr,,,,,,
+,2.088,0,19,cbr,,,,,,
-,2.08896,0,45,tcp,,,,,,
r,2.09,0,19,cbr,,,,,,
r,2.09064,0,45,tcp,,,,,,
+,2.092,0,19,cbr,,,,,,
-,2.096,0,19,cbr,,,,,,
+,2.096,0,19,cbr,,,,,,
-,2.09728,0,45,tcp,,,,,,
r,2.098,0,19,cbr,,,,,,
r,2.09896,0,45,tcp,,,,,,
+,2.1,0,19,cbr,,,,,,
+,2.10096,0,45,tcp,,,,,,
+,2.10096,0,45,tcp,,,,,,
-,2.104,0,19,cbr,,,,,,
+,2.104,0,19,cbr,,,,,,
-,2.1056,0,45,tcp,,,,,,
r,2.106,0,19,cbr,,,,,,
r,2.10728,0,45,tcp,,,,,,
+,2.108,0,19,cbr,,,,,,
+,2.10928,0,45,tcp,,,,,,
+,2.10928,0,45,tcp,,,,,,
+,2.10928,0,45,tcp,,,,,,
+,2.10928,0,45,tcp,,,,,,
+,2.10928,0,45,tcp,,,,,,
+,2.10928,0,45,tcp,,,,,,
-,2.112,0,19,cbr,,,,,,
+,2.112,0,19,cbr,,,,,,
-,2.11392,0,45,tcp,,,,,,
r,2.114,0,19,cbr,,,,,,
r,2.1156,0,45,tcp,,,,,,
+,2.116,0,19,cbr,,,,,,
+,2.1176,0,45,tcp,,,,,,
-,2.12,0,19,cbr,,,,,,
+,2.12,0,19,cbr,,,,,,
r,2.122,0,19,cbr,,,,,,
-,2.12224,0,45,tcp,,,,,,
r,2.12392,0,45,tcp,,,,,,
+,2.124,0,19,cbr,,,,,,
+,2.12592,0,45,tcp,,,,,,
-,2.128,0,19,cbr,,,,,,
+,2.128,0,19,cbr,,,,,,
r,2.13,0,19,cbr,,,,,,
-,2.13056,0,45,tcp,,,,,,
+,2.132,0,19,cbr,,,,,,
r,2.13224,0,45,tcp,,,,,,
-,2.136,0,19,cbr,,,,,,
+,2.136,0,19,cbr,,,,,,
r,2.138,0,19,cbr,,,,,,
-,2.13888,0,45,tcp,,,,,,
+,2.14,0,19,cbr,,,,,,
r,2.14056,0,45,tcp,,,,,,
-,2.144,0,19,cbr,,,,,,
+,2.144,0,19,cbr,,,,,,
r,2.146,0,19,cbr,,,,,,
-,2.1472,0,45,tcp,,,,,,
+,2.148,0,19,cbr,,,,,,
r,2.14888,0,45,tcp,,,,,,
-,2.152,0,19,cbr,,,,,,
+,2.152,0,19,cbr,,,,,,
r,2.154,0,19,cbr,,,,,,
-,2.15552,0,45,tcp,,,,,,
+,2.156,0,19,cbr,,,,,,
r,2.1572,0,45,tcp,,,,,,
+,2.1592,0,45,tcp,,,,,,
+,2.1592,0,45,tcp,,,,,,
-,2.16,0,19,cbr,,,,,,
+,2.16,0,19,cbr,,,,,,
r,2.162,0,19,cbr,,,,,,
-,2.16384,0,45,tcp,,,,,,
+,2.164,0,19,cbr,,,,,,
r,2.16552,0,45,tcp,,,,,,
+,2.16752,0,45,tcp,,,,,,
+,2.16752,0,45,tcp,,,,,,
-,2.168,0,19,cbr,,,,,,
+,2.168,0,19,cbr,,,,,,
r,2.17,0,19,cbr,,,,,,
+,2.172,0,19,cbr,,,,,,
-,2.17216,0,45,tcp,,,,,,
r,2.17384,0,45,tcp,,,,,,
+,2.17584,0,45,tcp,,,,,,
+,2.17584,0,45,tcp,,,,,,
-,2.176,0,19,cbr,,,,,,
+,2.176,0,19,cbr,,,,,,
r,2.178,0,19,cbr,,,,,,
+,2.18,0,19,cbr,,,,,,
-,2.18048,0,45,tcp,,,,,,
r,2.18216,0,45,tcp,,,,,,
-,2.184,0,19,cbr,,,,,,
+,2.184,0,19,cbr,,,,,,
+,2.18416,0,45,tcp,,,,,,
r,2.186,0,19,cbr,,,,,,
+,2.188,0,19,cbr,,,,,,
-,2.1888,0,45,tcp,,,,,,
r,2.19048,0,45,tcp,,,,,,
-,2.192,0,19,cbr,,,,,,
+,2.192,0,19,cbr,,,,,,
+,2.19248,0,45,tcp,,,,,,
r,2.194,0,19,cbr,,,,,,
+,2.196,0,19,cbr,,,,,,
-,2.19712,0,45,tcp,,,,,,
r,2.1988,0,45,tcp,,,,,,
-,2.2,0,19,cbr,,,,,,
+,2.2,0,19,cbr,,,,,,
+,2.2008,0,45,tcp,,,,,,
r,2.202,0,19,cbr,,,,,,
+,2.204,0,19,cbr,,,,,,
-,2.20544,0,45,tcp,,,,,,
r,2.20712,0,45,tcp,,,,,,
-,2.208,0,19,cbr,,,,,,
+,2.208,0,19,cbr,,,,,,
+,2.20912,0,45,tcp,,,,,,
r,2.21,0,19,cbr,,,,,,
+,2.212,0,19,cbr,,,,,,
-,2.21376,0,45,tcp,,,,,,
r,2.21544,0,45,tcp,,,,,,
-,2.216,0,19,cbr,,,,,,
+,2.216,0,19,cbr,,,,,,
+,2.21744,0,45,tcp,,,,,,
r,2.218,0,19,cbr,,,,,,
+,2.22,0,19,cbr,,,,,,
-,2.22208,0,45,tcp,,,,,,
r,2.22376,0,45,tcp,,,,,,
-,2.224,0,19,cbr,,,,,,
+,2.224,0,19,cbr,,,,,,
+,2.22576,0,45,tcp,,,,,,
r,2.226,0,19,cbr,,,,,,
+,2.228,0,19,cbr,,,,,,
-,2.2304,0,45,tcp,,,,,,
-,2.232,0,19,cbr,,,,,,
+,2.232,0,19,cbr,,,,,,
r,2.23208,0,45,tcp,,,,,,
r,2.234,0,19,cbr,,,,,,
+,2.23408,0,45,tcp,,,,,,
+,2.236,0,19,cbr,,,,,,
-,2.23872,0,45,tcp,,,,,,
-,2.24,0,19,cbr,,,,,,
+,2.24,0,19,cbr,,,,,,
r,2.2404,0,45,tcp,,,,,,
r,2.242,0,19,cbr,,,,,,
+,2.2424,0,45,tcp,,,,,,
+,2.244,0,19,cbr,,,,,,
-,2.24704,0,45,tcp,,,,,,
-,2.248,0,19,cbr,,,,,,
+,2.248,0,19,cbr,,,,,,
r,2.24872,0,45,tcp,,,,,,
r,2.25,0,19,cbr,,,,,,
+,2.25072,0,45,tcp,,,,,,
+,2.252,0,19,cbr,,,,,,
-,2.25536,0,45,tcp,,,,,,
-,2.256,0,19,cbr,,,,,,
+,2.256,0,19,cbr,,,,,,
r,2.25704,0,45,tcp,,,,,,
r,2.258,0,19,cbr,,,,,,
+,2.25904,0,45,tcp,,,,,,
+,2.26,0,19,cbr,,,,,,
-,2.26368,0,45,tcp,,,,,,
-,2.264,0,19,cbr,,,,,,
+,2.264,0,19,cbr,,,,,,
r,2.26536,0,45,tcp,,,,,,
r,2.266,0,19,cbr,,,,,,
+,2.26736,0,45,tcp,,,,,,
+,2.26736,0,45,tcp,,,,,,
+,2.268,0,19,cbr,,,,,,
-,2.272,0,19,cbr,,,,,,
+,2.272,0,19,cbr,,,,,,
-,2.272,0,45,tcp,,,,,,
r,2.27368,0,45,tcp,,,,,,
r,2.274,0,19,cbr,,,,,,
+,2.27568,0,45,tcp,,,,,,
+,2.276,0,19,cbr,,,,,,
-,2.28,0,19,cbr,,,,,,
+,2.28,0,19,cbr,,,,,,
-,2.28032,0,45,tcp,,,,,,
r,2.282,0,19,cbr,,,,,,
r,2.282,0,45,tcp,,,,,,
+,2.284,0,19,cbr,,,,,,
+,2.284,0,45,tcp,,,,,,
-,2.288,0,19,cbr,,,,,,
+,2.288,0,19,cbr,,,,,,
-,2.28864,0,45,tcp,,,,,,
r,2.29,0,19,cbr,,,,,,
r,2.29032,0,45,tcp,,,,,,
+,2.292,0,19,cbr,,,,,,
+,2.29232,0,45,tcp,,,,,,
-,2.296,0,19,cbr,,,,,,
+,2.296,0,19,cbr,,,,,,
-,2.29696,0,45,tcp,,,,,,
r,2.298,0,19,cbr,,,,,,
r,2.29864,0,45,tcp,,,,,,
+,2.3,0,19,cbr,,,,,,
+,2.30064,0,45,tcp,,,,,,
-,2.304,0,19,cbr,,,,,,
+,2.304,0,19,cbr,,,,,,
-,2.30528,0,45,tcp,,,,,,
r,2.306,0,19,cbr,,,,,,
r,2.30696,0,45,tcp,,,,,,
+,2.308,0,19,cbr,,,,,,
+,2.30896,0,45,tcp,,,,,,
-,2.312,0,19,cbr,,,,,,
+,2.312,0,19,cbr,,,,,,
-,2.3136,0,45,tcp,,,,,,
r,2.314,0,19,cbr,,,,,,
r,2.31528,0,45,tcp,,,,,,
+,2.316,0,19,cbr,,,,,,
+,2.31728,0,45,tcp,,,,,,
-,2.32,0,19,cbr,,,,,,
+,2.32,0,19,cbr,,,,,,
-,2.32192,0,45,tcp,,,,,,
r,2.322,0,19,cbr,,,,,,
r,2.3236,0,45,tcp,,,,,,
+,2.324,0,19,cbr,,,,,,
+,2.3256,0,45,tcp,,,,,,
-,2.328,0,19,cbr,,,,,,
+,2.328,0,19,cbr,,,,,,
r,2.33,0,19,cbr,,,,,,
-,2.33024,0,45,tcp,,,,,,
r,2.33192,0,45,tcp,,,,,,
+,2.332,0,19,cbr,,,,,,
+,2.33392,0,45,tcp,,,,,,
-,2.336,0,19,cbr,,,,,,
+,2.336,0,19,cbr,,,,,,
r,2.338,0,19,cbr,,,,,,
-,2.33856,0,45,tcp,,,,,,
+,2.34,0,19,cbr,,,,,,
r,2.34024,0,45,tcp,,,,,,
+,2.34224,0,45,tcp,,,,,,
-,2.344,0,19,cbr,,,,,,
+,2.344,0,19,cbr,,,,,,
r,2.346,0,19,cbr,,,,,,
-,2.34688,0,45,tcp,,,,,,
+,2.348,0,19,cbr,,,,,,
r,2.34856,0,45,tcp,,,,,,
+,2.35056,0,45,tcp,,,,,,
-,2.352,0,19,cbr,,,,,,
+,2.352,0,19,cbr,,,,,,
r,2.354,0,19,cbr,,,,,,
-,2.3552,0,45,tcp,,,,,,
+,2.356,0,19,cbr,,,,,,
r,2.35688,0,45,tcp,,,,,,
+,2.35888,0,45,tcp,,,,,,
+,2.35888,0,45,tcp,,,,,,
-,2.36,0,19,cbr,,,,,,
+,2.36,0,19,cbr,,,,,,
r,2.362,0,19,cbr,,,,,,
-,2.36352,0,45,tcp,,,,,,
+,2.364,0,19,cbr,,,,,,
r,2.3652,0,45,tcp,,,,,,
+,2.3672,0,45,tcp,,,,,,
-,2.368,0,19,cbr,,,,,,
+,2.368,0,19,cbr,,,,,,
r,2.37,0,19,cbr,,,,,,
-,2.37184,0,45,tcp,,,,,,
+,2.372,0,19,cbr,,,,,,
r,2.37352,0,45,tcp,,,,,,
+,2.37552,0,45,tcp,,,,,,
-,2.376,0,19,cbr,,,,,,
+,2.376,0,19,cbr,,,,,,
r,2.378,0,19,cbr,,,,,,
+,2.38,0,19,cbr,,,,,,
-,2.38016,0,45,tcp,,,,,,
r,2.38184,0,45,tcp,,,,,,
+,2.38384,0,45,tcp,,,,,,
-,2.384,0,19,cbr,,,,,,
+,2.384,0,19,cbr,,,,,,
r,2.386,0,19,cbr,,,,,,
+,2.388,0,19,cbr,,,,,,
-,2.38848,0,45,tcp,,,,,,
r,2.39016,0,45,tcp,,,,,,
-,2.392,0,19,cbr,,,,,,
+,2.392,0,19,cbr,,,,,,
+,2.39216,0,45,tcp,,,,,,
r,2.394,0,19,cbr,,,,,,
+,2.396,0,19,cbr,,,,,,
d,2.396,0,19,cbr,,,,,,
-,2.3968,0,45,tcp,,,,,,
r,2.39848,0,45,tcp,,,,,,
-,2.4,0,19,cbr,,,,,,
+,2.4,0,19,cbr,,,,,,
+,2.40048,0,45,tcp,,,,,,
r,2.402,0,19,cbr,,,,,,
+,2.404,0,19,cbr,,,,,,
d,2.404,0,19,cbr,,,,,,
-,2.40512,0,45,tcp,,,,,,
r,2.4068,0,45,tcp,,,,,,
-,2.408,0,19,cbr,,,,,,
+,2.408,0,19,cbr,,,,,,
+,2.4088,0,45,tcp,,,,,,
r,2.41,0,19,cbr,,,,,,
+,2.412,0,19,cbr,,,,,,
d,2.412,0,19,cbr,,,,,,
-,2.41344,0,45,tcp,,,,,,
r,2.41512,0,45,tcp,,,,,,
-,2.416,0,19,cbr,,,,,,
+,2.416,0,19,cbr,,,,,,
+,2.41712,0,45,tcp,,,,,,
r,2.418,0,19,cbr,,,,,,
+,2.42,0,19,cbr,,,,,,
d,2.42,0,19,cbr,,,,,,
-,2.42176,0,45,tcp,,,,,,
r,2.42344,0,45,tcp,,,,,,
-,2.424,0,19,cbr,,,,,,
+,2.424,0,19,cbr,,,,,,
+,2.42544,0,45,tcp,,,,,,
r,2.426,0,19,cbr,,,,,,
+,2.428,0,19,cbr,,,,,,
d,2.428,0,19,cbr,,,,,,
-,2.43008,0,45,tcp,,,,,,
r,2.43176,0,45,tcp,,,,,,
-,2.432,0,19,cbr,,,,,,
+,2.432,0,19,cbr,,,,,,
+,2.43376,0,45,tcp,,,,,,
r,2.434,0,19,cbr,,,,,,
+,2.436,0,19,cbr,,,,,,
d,2.436,0,19,cbr,,,,,,
-,2.4384,0,45,tcp,,,,,,
-,2.44,0,19,cbr,,,,,,
+,2.44,0,19,cbr,,,,,,
r,2.44008,0,45,tcp,,,,,,
r,2.442,0,19,cbr,,,,,,
+,2.44208,0,45,tcp,,,,,,
+,2.444,0,19,cbr,,,,,,
d,2.444,0,19,cbr,,,,,,
-,2.44672,0,45,tcp,,,,,,
-,2.448,0,19,cbr,,,,,,
+,2.448,0,19,cbr,,,,,,
r,2.4484,0,45,tcp,,,,,,
r,2.45,0,19,cbr,,,,,,
+,2.4504,0,45,tcp,,,,,,
+,2.452,0,19,cbr,,,,,,
d,2.452,0,19,cbr,,,,,,
-,2.45504,0,45,tcp,,,,,,
-,2.456,0,19,cbr,,,,,,
+,2.456,0,19,cbr,,,,,,
r,2.45672,0,45,tcp,,,,,,
r,2.458,0,19,cbr,,,,,,
+,2.45872,0,45,tcp,,,,,,
+,2.46,0,19,cbr,,,,,,
d,2.46,0,19,cbr,,,,,,
-,2.46336,0,45,tcp,,,,,,
-,2.464,0,19,cbr,,,,,,
+,2.464,0,19,cbr,,,,,,
r,2.46504,0,45,tcp,,,,,,
r,2.466,0,19,cbr,,,,,,
+,2.46704,0,45,tcp,,,,,,
+,2.46704,0,45,tcp,,,,,,
+,2.468,0,19,cbr,,,,,,
d,2.468,0,19,cbr,,,,,,
-,2.47168,0,45,tcp,,,,,,
-,2.472,0,19,cbr,,,,,,
+,2.472,0,19,cbr,,,,,,
r,2.47336,0,45,tcp,,,,,,
r,2.474,0,19,cbr,,,,,,
+,2.47536,0,45,tcp,,,,,,
+,2.476,0,19,cbr,,,,,,
d,2.476,0,19,cbr,,,,,,
-,2.48,0,19,cbr,,,,,,
+,2.48,0,19,cbr,,,,,,
-,2.48,0,45,tcp,,,,,,
r,2.48168,0,45,tcp,,,,,,
r,2.482,0,19,cbr,,,,,,
+,2.48368,0,45,tcp,,,,,,
+,2.484,0,19,cbr,,,,,,
d,2.484,0,19,cbr,,,,,,
-,2.488,0,19,cbr,,,,,,
+,2.488,0,19,cbr,,,,,,
-,2.48832,0,45,tcp,,,,,,
r,2.49,0,19,cbr,,,,,,
r,2.49,0,45,tcp,,,,,,
+,2.492,0,19,cbr,,,,,,
d,2.492,0,19,cbr,,,,,,
+,2.492,0,45,tcp,,,,,,
-,2.496,0,19,cbr,,,,,,
+,2.496,0,19,cbr,,,,,,
-,2.49664,0,45,tcp,,,,,,
r,2.498,0,19,cbr,,,,,,
r,2.49832,0,45,tcp,,,,,,
+,2.5,0,19,cbr,,,,,,
d,2.5,0,19,cbr,,,,,,
+,2.50032,0,45,tcp,,,,,,
-,2.504,0,19,cbr,,,,,,
+,2.504,0,19,cbr,,,,,,
-,2.50496,0,45,tcp,,,,,,
r,2.506,0,19,cbr,,,,,,
r,2.50664,0,45,tcp,,,,,,
+,2.508,0,19,cbr,,,,,,
d,2.508,0,19,cbr,,,,,,
+,2.50864,0,45,tcp,,,,,,
-,2.512,0,19,cbr,,,,,,
+,2.512,0,19,cbr,,,,,,
-,2.51328,0,45,tcp,,,,,,
r,2.514,0,19,cbr,,,,,,
r,2.51496,0,45,tcp,,,,,,
+,2.516,0,19,cbr,,,,,,
d,2.516,0,19,cbr,,,,,,
+,2.51696,0,45,tcp,,,,,,
-,2.52,0,19,cbr,,,,,,
+,2.52,0,19,cbr,,,,,,
-,2.5216,0,45,tcp,,,,,,
r,2.522,0,19,cbr,,,,,,
r,2.52328,0,45,tcp,,,,,,
+,2.524,0,19,cbr,,,,,,
d,2.524,0,19,cbr,,,,,,
+,2.52528,0,45,tcp,,,,,,
-,2.528,0,19,cbr,,,,,,
+,2.528,0,19,cbr,,,,,,
-,2.52992,0,45,tcp,,,,,,
r,2.53,0,19,cbr,,,,,,
r,2.5316,0,45,tcp,,,,,,
+,2.532,0,19,cbr,,,,,,
d,2.532,0,19,cbr,,,,,,
+,2.5336,0,45,tcp,,,,,,
-,2.536,0,19,cbr,,,,,,
+,2.536,0,19,cbr,,,,,,
r,2.538,0,19,cbr,,,,,,
-,2.53824,0,45,tcp,,,,,,
r,2.53992,0,45,tcp,,,,,,
+,2.54,0,19,cbr,,,,,,
d,2.54,0,19,cbr,,,,,,
+,2.54192,0,45,tcp,,,,,,
-,2.544,0,19,cbr,,,,,,
+,2.544,0,19,cbr,,,,,,
r,2.546,0,19,cbr,,,,,,
-,2.54656,0,45,tcp,,,,,,
+,2.548,0,19,cbr,,,,,,
d,2.548,0,19,cbr,,,,,,
r,2.54824,0,45,tcp,,,,,,
+,2.55024,0,45,tcp,,,,,,
-,2.552,0,19,cbr,,,,,,
+,2.552,0,19,cbr,,,,,,
r,2.554,0,19,cbr,,,,,,
-,2.55488,0,45,tcp,,,,,,
+,2.556,0,19,cbr,,,,,,
d,2.556,0,19,cbr,,,,,,
r,2.55656,0,45,tcp,,,,,,
+,2.55856,0,45,tcp,,,,,,
-,2.56,0,19,cbr,,,,,,
+,2.56,0,19,cbr,,,,,,
r,2.562,0,19,cbr,,,,,,
-,2.5632,0,45,tcp,,,,,,
+,2.564,0,19,cbr,,,,,,
d,2.564,0,19,cbr,,,,,,
r,2.56488,0,45,tcp,,,,,,
+,2.56688,0,45,tcp,,,,,,
-,2.568,0,19,cbr,,,,,,
+,2.568,0,19,cbr,,,,,,
r,2.57,0,19,cbr,,,,,,
-,2.57152,0,45,tcp,,,,,,
+,2.572,0,19,cbr,,,,,,
d,2.572,0,19,cbr,,,,,,
r,2.5732,0,45,tcp,,,,,,
+,2.5752,0,45,tcp,,,,,,
+,2.5752,0,45,tcp,,,,,,
-,2.576,0,19,cbr,,,,,,
+,2.576,0,19,cbr,,,,,,
r,2.578,0,19,cbr,,,,,,
-,2.57984,0,45,tcp,,,,,,
+,2.58,0,19,cbr,,,,,,
d,2.58,0,19,cbr,,,,,,
r,2.58152,0,45,tcp,,,,,,
+,2.58352,0,45,tcp,,,,,,
-,2.584,0,19,cbr,,,,,,
+,2.584,0,19,cbr,,,,,,
r,2.586,0,19,cbr,,,,,,
+,2.588,0,19,cbr,,,,,,
d,2.588,0,19,cbr,,,,,,
-,2.58816,0,45,tcp,,,,,,
r,2.58984,0,45,tcp,,,,,,
+,2.59184,0,45,tcp,,,,,,
-,2.592,0,19,cbr,,,,,,
+,2.592,0,19,cbr,,,,,,
r,2.594,0,19,cbr,,,,,,
+,2.596,0,19,cbr,,,,,,
d,2.596,0,19,cbr,,,,,,
-,2.59648,0,45,tcp,,,,,,
r,2.59816,0,45,tcp,,,,,,
-,2.6,0,19,cbr,,,,,,
+,2.6,0,19,cbr,,,,,,
+,2.60016,0,45,tcp,,,,,,
r,2.602,0,19,cbr,,,,,,
+,2.604,0,19,cbr,,,,,,
d,2.604,0,19,cbr,,,,,,
-,2.6048,0,45,tcp,,,,,,
r,2.60648,0,45,tcp,,,,,,
-,2.608,0,19,cbr,,,,,,
+,2.608,0,19,cbr,,,,,,
+,2.60848,0,45,tcp,,,,,,
r,2.61,0,19,cbr,,,,,,
+,2.612,0,19,cbr,,,,,,
d,2.612,0,19,cbr,,,,,,
-,2.61312,0,45,tcp,,,,,,
r,2.6148,0,45,tcp,,,,,,
-,2.616,0,19,cbr,,,,,,
+,2.616,0,19,cbr,,,,,,
+,2.6168,0,45,tcp,,,,,,
r,2.618,0,19,cbr,,,,,,
+,2.62,0,19,cbr,,,,,,
d,2.62,0,19,cbr,,,,,,
-,2.62144,0,45,tcp,,,,,,
r,2.62312,0,45,tcp,,,,,,
-,2.624,0,19,cbr,,,,,,
+,2.624,0,19,cbr,,,,,,
+,2.62512,0,45,tcp,,,,,,
r,2.626,0,19,cbr,,,,,,
+,2.628,0,19,cbr,,,,,,
d,2.628,0,19,cbr,,,,,,
-,2.62976,0,45,tcp,,,,,,
r,2.63144,0,45,tcp,,,,,,
-,2.632,0,19,cbr,,,,,,
+,2.632,0,19,cbr,,,,,,
+,2.63344,0,45,tcp,,,,,,
r,2.634,0,19,cbr,,,,,,
+,2.636,0,19,cbr,,,,,,
d,2.636,0,19,cbr,,,,,,
-,2.63808,0,45,tcp,,,,,,
r,2.63976,0,45,tcp,,,,,,
-,2.64,0,19,cbr,,,,,,
+,2.64,0,19,cbr,,,,,,
+,2.64176,0,45,tcp,,,,,,
r,2.642,0,19,cbr,,,,,,
+,2.644,0,19,cbr,,,,,,
d,2.644,0,19,cbr,,,,,,
-,2.6464,0,45,tcp,,,,,,
-,2.648,0,19,cbr,,,,,,
+,2.648,0,19,cbr,,,,,,
r,2.64808,0,45,tcp,,,,,,
r,2.65,0,19,cbr,,,,,,
+,2.65008,0,45,tcp,,,,,,
+,2.652,0,19,cbr,,,,,,
d,2.652,0,19,cbr,,,,,,
-,2.65472,0,45,tcp,,,,,,
-,2.656,0,19,cbr,,,,,,
+,2.656,0,19,cbr,,,,,,
r,2.6564,0,45,tcp,,,,,,
r,2.658,0,19,cbr,,,,,,
+,2.6584,0,45,tcp,,,,,,
+,2.66,0,19,cbr,,,,,,
d,2.66,0,19,cbr,,,,,,
-,2.66304,0,45,tcp,,,,,,
-,2.664,0,19,cbr,,,,,,
+,2.664,0,19,cbr,,,,,,
r,2.66472,0,45,tcp,,,,,,
r,2.666,0,19,cbr,,,,,,
+,2.66672,0,45,tcp,,,,,,
+,2.668,0,19,cbr,,,,,,
d,2.668,0,19,cbr,,,,,,
-,2.67136,0,45,tcp,,,,,,
-,2.672,0,19,cbr,,,,,,
+,2.672,0,19,cbr,,,,,,
r,2.67304,0,45,tcp,,,,,,
r,2.674,0,19,cbr,,,,,,
+,2.67504,0,45,tcp,,,,,,
+,2.676,0,19,cbr,,,,,,
d,2.676,0,19,cbr,,,,,,
-,2.67968,0,45,tcp,,,,,,
-,2.68,0,19,cbr,,,,,,
+,2.68,0,19,cbr,,,,,,
r,2.68136,0,45,tcp,,,,,,
r,2.682,0,19,cbr,,,,,,
+,2.68336,0,45,tcp,,,,,,
+,2.684,0,19,cbr,,,,,,
d,2.684,0,19,cbr,,,,,,
-,2.688,0,45,tcp,,,,,,
-,2.688,0,19,cbr,,,,,,
+,2.688,0,19,cbr,,,,,,
r,2.68968,0,45,tcp,,,,,,
r,2.69,0,19,cbr,,,,,,
+,2.69168,0,45,tcp,,,,,,
+,2.692,0,19,cbr,,,,,,
d,2.692,0,19,cbr,,,,,,
-,2.696,0,19,cbr,,,,,,
+,2.696,0,19,cbr,,,,,,
-,2.69632,0,45,tcp,,,,,,
r,2.698,0,19,cbr,,,,,,
r,2.698,0,45,tcp,,,,,,
+,2.7,0,19,cbr,,,,,,
d,2.7,0,19,cbr,,,,,,
+,2.7,0,45,tcp,,,,,,
+,2.7,0,45,tcp,,,,,,
-,2.704,0,19,cbr,,,,,,
+,2.704,0,19,cbr,,,,,,
-,2.70464,0,45,tcp,,,,,,
r,2.706,0,19,cbr,,,,,,
r,2.70632,0,45,tcp,,,,,,
+,2.708,0,19,cbr,,,,,,
d,2.708,0,19,cbr,,,,,,
+,2.70832,0,45,tcp,,,,,,
-,2.712,0,19,cbr,,,,,,
+,2.712,0,19,cbr,,,,,,
-,2.71296,0,45,tcp,,,,,,
r,2.714,0,19,cbr,,,,,,
r,2.71464,0,45,tcp,,,,,,
+,2.716,0,19,cbr,,,,,,
d,2.716,0,19,cbr,,,,,,
+,2.71664,0,45,tcp,,,,,,
-,2.72,0,19,cbr,,,,,,
+,2.72,0,19,cbr,,,,,,
-,2.72128,0,45,tcp,,,,,,
r,2.722,0,19,cbr,,,,,,
r,2.72296,0,45,tcp,,,,,,
+,2.724,0,19,cbr,,,,,,
d,2.724,0,19,cbr,,,,,,
+,2.72496,0,45,tcp,,,,,,
-,2.728,0,19,cbr,,,,,,
+,2.728,0,19,cbr,,,,,,
-,2.7296,0,45,tcp,,,,,,
r,2.73,0,19,cbr,,,,,,
r,2.73128,0,45,tcp,,,,,,
+,2.732,0,19,cbr,,,,,,
d,2.732,0,19,cbr,,,,,,
+,2.73328,0,45,tcp,,,,,,
-,2.736,0,19,cbr,,,,,,
+,2.736,0,19,cbr,,,,,,
-,2.73792,0,45,tcp,,,,,,
r,2.738,0,19,cbr,,,,,,
r,2.7396,0,45,tcp,,,,,,
+,2.74,0,19,cbr,,,,,,
d,2.74,0,19,cbr,,,,,,
+,2.7416,0,45,tcp,,,,,,
-,2.744,0,19,cbr,,,,,,
+,2.744,0,19,cbr,,,,,,
r,2.746,0,19,cbr,,,,,,
-,2.74624,0,45,tcp,,,,,,
r,2.74792,0,45,tcp,,,,,,
+,2.748,0,19,cbr,,,,,,
d,2.748,0,19,cbr,,,,,,
+,2.74992,0,45,tcp,,,,,,
-,2.752,0,19,cbr,,,,,,
+,2.752,0,19,cbr,,,,,,
r,2.754,0,19,cbr,,,,,,
-,2.75456,0,45,tcp,,,,,,
+,2.756,0,19,cbr,,,,,,
d,2.756,0,19,cbr,,,,,,
r,2.75624,0,45,tcp,,,,,,
+,2.75824,0,45,tcp,,,,,,
-,2.76,0,19,cbr,,,,,,
+,2.76,0,19,cbr,,,,,,
r,2.762,0,19,cbr,,,,,,
-,2.76288,0,45,tcp,,,,,,
+,2.764,0,19,cbr,,,,,,
d,2.764,0,19,cbr,,,,,,
r,2.76456,0,45,tcp,,,,,,
+,2.76656,0,45,tcp,,,,,,
-,2.768,0,19,cbr,,,,,,
+,2.768,0,19,cbr,,,,,,
r,2.77,0,19,cbr,,,,,,
-,2.7712,0,45,tcp,,,,,,
+,2.772,0,19,cbr,,,,,,
d,2.772,0,19,cbr,,,,,,
r,2.77288,0,45,tcp,,,,,,
+,2.77488,0,45,tcp,,,,,,
-,2.776,0,19,cbr,,,,,,
+,2.776,0,19,cbr,,,,,,
r,2.778,0,19,cbr,,,,,,
-,2.77952,0,45,tcp,,,,,,
+,2.78,0,19,cbr,,,,,,
d,2.78,0,19,cbr,,,,,,
r,2.7812,0,45,tcp,,,,,,
+,2.7832,0,45,tcp,,,,,,
-,2.784,0,19,cbr,,,,,,
+,2.784,0,19,cbr,,,,,,
r,2.786,0,19,cbr,,,,,,
-,2.78784,0,45,tcp,,,,,,
+,2.788,0,19,cbr,,,,,,
d,2.788,0,19,cbr,,,,,,
r,2.78952,0,45,tcp,,,,,,
+,2.79152,0,45,tcp,,,,,,
-,2.792,0,19,cbr,,,,,,
+,2.792,0,19,cbr,,,,,,
r,2.794,0,19,cbr,,,,,,
+,2.796,0,19,cbr,,,,,,
d,2.796,0,19,cbr,,,,,,
-,2.79616,0,45,tcp,,,,,,
r,2.79784,0,45,tcp,,,,,,
+,2.79984,0,45,tcp,,,,,,
-,2.8,0,19,cbr,,,,,,
+,2.8,0,19,cbr,,,,,,
r,2.802,0,19,cbr,,,,,,
+,2.804,0,19,cbr,,,,,,
d,2.804,0,19,cbr,,,,,,
-,2.80448,0,45,tcp,,,,,,
r,2.80616,0,45,tcp,,,,,,
-,2.808,0,19,cbr,,,,,,
+,2.808,0,19,cbr,,,,,,
+,2.80816,0,45,tcp,,,,,,
r,2.81,0,19,cbr,,,,,,
+,2.812,0,19,cbr,,,,,,
d,2.812,0,19,cbr,,,,,,
-,2.8128,0,45,tcp,,,,,,
r,2.81448,0,45,tcp,,,,,,
-,2.816,0,19,cbr,,,,,,
+,2.816,0,19,cbr,,,,,,
+,2.81648,0,45,tcp,,,,,,
r,2.818,0,19,cbr,,,,,,
+,2.82,0,19,cbr,,,,,,
d,2.82,0,19,cbr,,,,,,
-,2.82112,0,45,tcp,,,,,,
r,2.8228,0,45,tcp,,,,,,
-,2.824,0,19,cbr,,,,,,
+,2.824,0,19,cbr,,,,,,
+,2.8248,0,45,tcp,,,,,,
+,2.8248,0,45,tcp,,,,,,
r,2.826,0,19,cbr,,,,,,
+,2.828,0,19,cbr,,,,,,
d,2.828,0,19,cbr,,,,,,
-,2.82944,0,45,tcp,,,,,,
r,2.83112,0,45,tcp,,,,,,
-,2.832,0,19,cbr,,,,,,
+,2.832,0,19,cbr,,,,,,
+,2.83312,0,45,tcp,,,,,,
r,2.834,0,19,cbr,,,,,,
+,2.836,0,19,cbr,,,,,,
d,2.836,0,19,cbr,,,,,,
-,2.83776,0,45,tcp,,,,,,
r,2.83944,0,45,tcp,,,,,,
-,2.84,0,19,cbr,,,,,,
+,2.84,0,19,cbr,,,,,,
+,2.84144,0,45,tcp,,,,,,
r,2.842,0,19,cbr,,,,,,
+,2.844,0,19,cbr,,,,,,
d,2.844,0,19,cbr,,,,,,
-,2.84608,0,45,tcp,,,,,,
r,2.84776,0,45,tcp,,,,,,
-,2.848,0,19,cbr,,,,,,
+,2.848,0,19,cbr,,,,,,
+,2.84976,0,45,tcp,,,,,,
r,2.85,0,19,cbr,,,,,,
+,2.852,0,19,cbr,,,,,,
d,2.852,0,19,cbr,,,,,,
-,2.8544,0,45,tcp,,,,,,
-,2.856,0,19,cbr,,,,,,
+,2.856,0,19,cbr,,,,,,
r,2.85608,0,45,tcp,,,,,,
r,2.858,0,19,cbr,,,,,,
+,2.85808,0,45,tcp,,,,,,
+,2.86,0,19,cbr,,,,,,
d,2.86,0,19,cbr,,,,,,
-,2.86272,0,45,tcp,,,,,,
-,2.864,0,19,cbr,,,,,,
+,2.864,0,19,cbr,,,,,,
r,2.8644,0,45,tcp,,,,,,
r,2.866,0,19,cbr,,,,,,
+,2.8664,0,45,tcp,,,,,,
+,2.868,0,19,cbr,,,,,,
d,2.868,0,19,cbr,,,,,,
-,2.87104,0,45,tcp,,,,,,
-,2.872,0,19,cbr,,,,,,
+,2.872,0,19,cbr,,,,,,
r,2.87272,0,45,tcp,,,,,,
r,2.874,0,19,cbr,,,,,,
+,2.87472,0,45,tcp,,,,,,
+,2.876,0,19,cbr,,,,,,
d,2.876,0,19,cbr,,,,,,
-,2.87936,0,45,tcp,,,,,,
-,2.88,0,19,cbr,,,,,,
+,2.88,0,19,cbr,,,,,,
r,2.88104,0,45,tcp,,,,,,
r,2.882,0,19,cbr,,,,,,
+,2.88304,0,45,tcp,,,,,,
+,2.884,0,19,cbr,,,,,,
d,2.884,0,19,cbr,,,,,,
-,2.88768,0,45,tcp,,,,,,
-,2.888,0,19,cbr,,,,,,
+,2.888,0,19,cbr,,,,,,
r,2.88936,0,45,tcp,,,,,,
r,2.89,0,19,cbr,,,,,,
+,2.89136,0,45,tcp,,,,,,
+,2.892,0,19,cbr,,,,,,
d,2.892,0,19,cbr,,,,,,
-,2.896,0,45,tcp,,,,,,
-,2.896,0,19,cbr,,,,,,
+,2.896,0,19,cbr,,,,,,
r,2.89768,0,45,tcp,,,,,,
r,2.898,0,19,cbr,,,,,,
+,2.89968,0,45,tcp,,,,,,
+,2.9,0,19,cbr,,,,,,
d,2.9,0,19,cbr,,,,,,
-,2.904,0,19,cbr,,,,,,
+,2.904,0,19,cbr,,,,,,
-,2.90432,0,45,tcp,,,,,,
r,2.906,0,45,tcp,,,,,,
r,2.906,0,19,cbr,,,,,,
+,2.908,0,45,tcp,,,,,,
+,2.908,0,19,cbr,,,,,,
d,2.908,0,19,cbr,,,,,,
-,2.912,0,19,cbr,,,,,,
+,2.912,0,19,cbr,,,,,,
-,2.91264,0,45,tcp,,,,,,
r,2.914,0,19,cbr,,,,,,
r,2.91432,0,45,tcp,,,,,,
+,2.916,0,19,cbr,,,,,,
d,2.916,0,19,cbr,,,,,,
+,2.91632,0,45,tcp,,,,,,
-,2.92,0,19,cbr,,,,,,
+,2.92,0,19,cbr,,,,,,
-,2.92096,0,45,tcp,,,,,,
r,2.922,0,19,cbr,,,,,,
r,2.92264,0,45,tcp,,,,,,
+,2.924,0,19,cbr,,,,,,
d,2.924,0,19,cbr,,,,,,
+,2.92464,0,45,tcp,,,,,,
-,2.928,0,19,cbr,,,,,,
+,2.928,0,19,cbr,,,,,,
-,2.92928,0,45,tcp,,,,,,
r,2.93,0,19,cbr,,,,,,
r,2.93096,0,45,tcp,,,,,,
+,2.932,0,19,cbr,,,,,,
d,2.932,0,19,cbr,,,,,,
+,2.93296,0,45,tcp,,,,,,
-,2.936,0,19,cbr,,,,,,
+,2.936,0,19,cbr,,,,,,
-,2.9376,0,45,tcp,,,,,,
r,2.938,0,19,cbr,,,,,,
r,2.93928,0,45,tcp,,,,,,
+,2.94,0,19,cbr,,,,,,
d,2.94,0,19,cbr,,,,,,
+,2.94128,0,45,tcp,,,,,,
-,2.944,0,19,cbr,,,,,,
+,2.944,0,19,cbr,,,,,,
-,2.94592,0,45,tcp,,,,,,
r,2.946,0,19,cbr,,,,,,
r,2.9476,0,45,tcp,,,,,,
+,2.948,0,19,cbr,,,,,,
d,2.948,0,19,cbr,,,,,,
+,2.9496,0,45,tcp,,,,,,
-,2.952,0,19,cbr,,,,,,
+,2.952,0,19,cbr,,,,,,
r,2.954,0,19,cbr,,,,,,
-,2.95424,0,45,tcp,,,,,,
r,2.95592,0,45,tcp,,,,,,
+,2.956,0,19,cbr,,,,,,
d,2.956,0,19,cbr,,,,,,
-,2.96,0,19,cbr,,,,,,
+,2.96,0,19,cbr,,,,,,
r,2.962,0,19,cbr,,,,,,
-,2.96256,0,45,tcp,,,,,,
+,2.964,0,19,cbr,,,,,,
d,2.964,0,19,cbr,,,,,,
r,2.96424,0,45,tcp,,,,,,
-,2.968,0,19,cbr,,,,,,
+,2.968,0,19,cbr,,,,,,
r,2.97,0,19,cbr,,,,,,
-,2.97088,0,45,tcp,,,,,,
+,2.972,0,19,cbr,,,,,,
d,2.972,0,19,cbr,,,,,,
r,2.97256,0,45,tcp,,,,,,
-,2.976,0,19,cbr,,,,,,
+,2.976,0,19,cbr,,,,,,
r,2.978,0,19,cbr,,,,,,
-,2.9792,0,45,tcp,,,,,,
+,2.98,0,19,cbr,,,,,,
d,2.98,0,19,cbr,,,,,,
r,2.98088,0,45,tcp,,,,,,
-,2.984,0,19,cbr,,,,,,
+,2.984,0,19,cbr,,,,,,
r,2.986,0,19,cbr,,,,,,
-,2.98752,0,45,tcp,,,,,,
+,2.988,0,19,cbr,,,,,,
d,2.988,0,19,cbr,,,,,,
r,2.9892,0,45,tcp,,,,,,
+,2.991852,0,45,tcp,,,,,,
d,2.991852,0,45,tcp,,,,,,
-,2.992,0,19,cbr,,,,,,
+,2.992,0,19,cbr,,,,,,
+,2.992172,0,45,tcp,,,,,,
d,2.992172,0,45,tcp,,,,,,
+,2.992172,0,45,tcp,,,,,,
d,2.992172,0,45,tcp,,,,,,
+,2.992492,0,45,tcp,,,,,,
d,2.992492,0,45,tcp,,,,,,
+,2.992812,0,45,tcp,,,,,,
d,2.992812,0,45,tcp,,,,,,
+,2.993132,0,45,tcp,,,,,,
d,2.993132,0,45,tcp,,,,,,
r,2.994,0,19,cbr,,,,,,
-,2.99584,0,45,tcp,,,,,,
+,2.996,0,19,cbr,,,,,,
d,2.996,0,19,cbr,,,,,,
r,2.99752,0,45,tcp,,,,,,
+,2.99952,0,45,tcp,,,,,,
-,3,0,19,cbr,,,,,,
+,3,0,19,cbr,,,,,,
r,3.002,0,19,cbr,,,,,,
+,3.004,0,19,cbr,,,,,,
d,3.004,0,19,cbr,,,,,,
-,3.00416,0,45,tcp,,,,,,
r,3.00584,0,45,tcp,,,,,,
+,3.00784,0,45,tcp,,,,,,
-,3.008,0,19,cbr,,,,,,
+,3.008,0,19,cbr,,,,,,
r,3.01,0,19,cbr,,,,,,
+,3.012,0,19,cbr,,,,,,
d,3.012,0,19,cbr,,,,,,
-,3.01248,0,45,tcp,,,,,,
r,3.01416,0,45,tcp,,,,,,
-,3.016,0,19,cbr,,,,,,
+,3.016,0,19,cbr,,,,,,
+,3.01616,0,45,tcp,,,,,,
r,3.018,0,19,cbr,,,,,,
+,3.02,0,19,cbr,,,,,,
d,3.02,0,19,cbr,,,,,,
-,3.0208,0,45,tcp,,,,,,
r,3.02248,0,45,tcp,,,,,,
-,3.024,0,19,cbr,,,,,,
+,3.024,0,19,cbr,,,,,,
+,3.02448,0,45,tcp,,,,,,
r,3.026,0,19,cbr,,,,,,
+,3.028,0,19,cbr,,,,,,
d,3.028,0,19,cbr,,,,,,
-,3.02912,0,45,tcp,,,,,,
r,3.0308,0,45,tcp,,,,,,
-,3.032,0,19,cbr,,,,,,
+,3.032,0,19,cbr,,,,,,
+,3.0328,0,45,tcp,,,,,,
r,3.034,0,19,cbr,,,,,,
+,3.036,0,19,cbr,,,,,,
d,3.036,0,19,cbr,,,,,,
-,3.03744,0,45,tcp,,,,,,
r,3.03912,0,45,tcp,,,,,,
-,3.04,0,19,cbr,,,,,,
+,3.04,0,19,cbr,,,,,,
+,3.04112,0,45,tcp,,,,,,
r,3.042,0,19,cbr,,,,,,
+,3.044,0,19,cbr,,,,,,
d,3.044,0,19,cbr,,,,,,
-,3.04576,0,45,tcp,,,,,,
r,3.04744,0,45,tcp,,,,,,
-,3.048,0,19,cbr,,,,,,
+,3.048,0,19,cbr,,,,,,
+,3.04944,0,45,tcp,,,,,,
r,3.05,0,19,cbr,,,,,,
+,3.052,0,19,cbr,,,,,,
d,3.052,0,19,cbr,,,,,,
r,3.05576,0,45,tcp,,,,,,
-,3.056,0,19,cbr,,,,,,
+,3.056,0,19,cbr,,,,,,
+,3.05776,0,45,tcp,,,,,,
r,3.058,0,19,cbr,,,,,,
+,3.06,0,19,cbr,,,,,,
d,3.06,0,19,cbr,,,,,,
-,3.064,0,19,cbr,,,,,,
+,3.064,0,19,cbr,,,,,,
r,3.06408,0,45,tcp,,,,,,
r,3.066,0,19,cbr,,,,,,
+,3.06608,0,45,tcp,,,,,,
-,3.06688,0,45,tcp,,,,,,
+,3.068,0,19,cbr,,,,,,
d,3.068,0,19,cbr,,,,,,
-,3.072,0,19,cbr,,,,,,
+,3.072,0,19,cbr,,,,,,
r,3.074,0,19,cbr,,,,,,
+,3.0744,0,45,tcp,,,,,,
+,3.076,0,19,cbr,,,,,,
d,3.076,0,19,cbr,,,,,,
-,3.0792,0,45,tcp,,,,,,
-,3.08,0,19,cbr,,,,,,
+,3.08,0,19,cbr,,,,,,
r,3.082,0,19,cbr,,,,,,
+,3.084,0,19,cbr,,,,,,
d,3.084,0,19,cbr,,,,,,
r,3.0852,0,45,tcp,,,,,,
-,3.08752,0,45,tcp,,,,,,
-,3.088,0,19,cbr,,,,,,
+,3.088,0,19,cbr,,,,,,
r,3.09,0,19,cbr,,,,,,
+,3.092,0,19,cbr,,,,,,
d,3.092,0,19,cbr,,,,,,
+,3.09552,0,45,tcp,,,,,,
-,3.09584,0,45,tcp,,,,,,
-,3.096,0,19,cbr,,,,,,
+,3.096,0,19,cbr,,,,,,
r,3.09752,0,45,tcp,,,,,,
r,3.098,0,19,cbr,,,,,,
+,3.1,0,19,cbr,,,,,,
d,3.1,0,19,cbr,,,,,,
-,3.104,0,19,cbr,,,,,,
+,3.104,0,19,cbr,,,,,,
-,3.10416,0,45,tcp,,,,,,
r,3.10584,0,45,tcp,,,,,,
r,3.106,0,19,cbr,,,,,,
+,3.10784,0,45,tcp,,,,,,
+,3.108,0,19,cbr,,,,,,
d,3.108,0,19,cbr,,,,,,
-,3.112,0,19,cbr,,,,,,
+,3.112,0,19,cbr,,,,,,
-,3.11248,0,45,tcp,,,,,,
r,3.114,0,19,cbr,,,,,,
r,3.11416,0,45,tcp,,,,,,
+,3.116,0,19,cbr,,,,,,
d,3.116,0,19,cbr,,,,,,
+,3.11616,0,45,tcp,,,,,,
-,3.12,0,19,cbr,,,,,,
+,3.12,0,19,cbr,,,,,,
-,3.1208,0,45,tcp,,,,,,
r,3.122,0,19,cbr,,,,,,
r,3.12248,0,45,tcp,,,,,,
+,3.124,0,19,cbr,,,,,,
d,3.124,0,19,cbr,,,,,,
+,3.12448,0,45,tcp,,,,,,
-,3.128,0,19,cbr,,,,,,
+,3.128,0,19,cbr,,,,,,
-,3.12912,0,45,tcp,,,,,,
r,3.13,0,19,cbr,,,,,,
r,3.1308,0,45,tcp,,,,,,
+,3.132,0,19,cbr,,,,,,
d,3.132,0,19,cbr,,,,,,
-,3.136,0,19,cbr,,,,,,
+,3.136,0,19,cbr,,,,,,
-,3.13744,0,45,tcp,,,,,,
r,3.138,0,19,cbr,,,,,,
r,3.13912,0,45,tcp,,,,,,
+,3.14,0,19,cbr,,,,,,
d,3.14,0,19,cbr,,,,,,
-,3.144,0,19,cbr,,,,,,
+,3.144,0,19,cbr,,,,,,
-,3.14576,0,45,tcp,,,,,,
r,3.146,0,19,cbr,,,,,,
r,3.14744,0,45,tcp,,,,,,
+,3.148,0,19,cbr,,,,,,
d,3.148,0,19,cbr,,,,,,
-,3.152,0,19,cbr,,,,,,
+,3.152,0,19,cbr,,,,,,
r,3.154,0,19,cbr,,,,,,
-,3.15408,0,45,tcp,,,,,,
r,3.15576,0,45,tcp,,,,,,
+,3.156,0,19,cbr,,,,,,
d,3.156,0,19,cbr,,,,,,
-,3.16,0,19,cbr,,,,,,
+,3.16,0,19,cbr,,,,,,
r,3.162,0,19,cbr,,,,,,
-,3.1624,0,45,tcp,,,,,,
+,3.164,0,19,cbr,,,,,,
d,3.164,0,19,cbr,,,,,,
r,3.16408,0,45,tcp,,,,,,
-,3.168,0,19,cbr,,,,,,
+,3.168,0,19,cbr,,,,,,
r,3.17,0,19,cbr,,,,,,
-,3.17072,0,45,tcp,,,,,,
+,3.172,0,19,cbr,,,,,,
d,3.172,0,19,cbr,,,,,,
r,3.1724,0,45,tcp,,,,,,
-,3.176,0,19,cbr,,,,,,
+,3.176,0,19,cbr,,,,,,
r,3.178,0,19,cbr,,,,,,
-,3.17904,0,45,tcp,,,,,,
+,3.18,0,19,cbr,,,,,,
d,3.18,0,19,cbr,,,,,,
r,3.18072,0,45,tcp,,,,,,
-,3.184,0,19,cbr,,,,,,
+,3.184,0,19,cbr,,,,,,
r,3.186,0,19,cbr,,,,,,
-,3.18736,0,45,tcp,,,,,,
+,3.188,0,19,cbr,,,,,,
d,3.188,0,19,cbr,,,,,,
r,3.18904,0,45,tcp,,,,,,
-,3.192,0,19,cbr,,,,,,
+,3.192,0,19,cbr,,,,,,
r,3.194,0,19,cbr,,,,,,
+,3.196,0,19,cbr,,,,,,
d,3.196,0,19,cbr,,,,,,
r,3.19736,0,45,tcp,,,,,,
-,3.2,0,19,cbr,,,,,,
+,3.2,0,19,cbr,,,,,,
r,3.202,0,19,cbr,,,,,,
+,3.204,0,19,cbr,,,,,,
d,3.204,0,19,cbr,,,,,,
r,3.20568,0,45,tcp,,,,,,
-,3.208,0,19,cbr,,,,,,
+,3.208,0,19,cbr,,,,,,
r,3.21,0,19,cbr,,,,,,
+,3.212,0,19,cbr,,,,,,
d,3.212,0,19,cbr,,,,,,
+,3.216,0,45,tcp,,,,,,
-,3.216,0,45,tcp,,,,,,
+,3.216,0,45,tcp,,,,,,
-,3.216,0,19,cbr,,,,,,
+,3.216,0,19,cbr,,,,,,
r,3.218,0,19,cbr,,,,,,
+,3.22,0,19,cbr,,,,,,
d,3.22,0,19,cbr,,,,,,
-,3.224,0,19,cbr,,,,,,
+,3.224,0,19,cbr,,,,,,
-,3.22432,0,45,tcp,,,,,,
r,3.226,0,19,cbr,,,,,,
+,3.228,0,19,cbr,,,,,,
d,3.228,0,19,cbr,,,,,,
-,3.232,0,19,cbr,,,,,,
+,3.232,0,19,cbr,,,,,,
r,3.234,0,19,cbr,,,,,,
r,3.23432,0,45,tcp,,,,,,
+,3.236,0,19,cbr,,,,,,
d,3.236,0,19,cbr,,,,,,
-,3.24,0,19,cbr,,,,,,
+,3.24,0,19,cbr,,,,,,
r,3.242,0,19,cbr,,,,,,
r,3.24264,0,45,tcp,,,,,,
+,3.244,0,19,cbr,,,,,,
d,3.244,0,19,cbr,,,,,,
+,3.24464,0,45,tcp,,,,,,
-,3.24464,0,45,tcp,,,,,,
+,3.24464,0,45,tcp,,,,,,
-,3.248,0,19,cbr,,,,,,
+,3.248,0,19,cbr,,,,,,
r,3.25,0,19,cbr,,,,,,
+,3.252,0,19,cbr,,,,,,
d,3.252,0,19,cbr,,,,,,
+,3.25296,0,45,tcp,,,,,,
+,3.25296,0,45,tcp,,,,,,
-,3.25296,0,45,tcp,,,,,,
-,3.256,0,19,cbr,,,,,,
+,3.256,0,19,cbr,,,,,,
r,3.258,0,19,cbr,,,,,,
+,3.26,0,19,cbr,,,,,,
d,3.26,0,19,cbr,,,,,,
-,3.26128,0,45,tcp,,,,,,
r,3.26296,0,45,tcp,,,,,,
-,3.264,0,19,cbr,,,,,,
+,3.264,0,19,cbr,,,,,,
r,3.266,0,19,cbr,,,,,,
+,3.268,0,19,cbr,,,,,,
d,3.268,0,19,cbr,,,,,,
-,3.2696,0,45,tcp,,,,,,
r,3.27128,0,45,tcp,,,,,,
-,3.272,0,19,cbr,,,,,,
+,3.272,0,19,cbr,,,,,,
+,3.27328,0,45,tcp,,,,,,
+,3.27328,0,45,tcp,,,,,,
r,3.274,0,19,cbr,,,,,,
+,3.276,0,19,cbr,,,,,,
d,3.276,0,19,cbr,,,,,,
-,3.27792,0,45,tcp,,,,,,
r,3.2796,0,45,tcp,,,,,,
-,3.28,0,19,cbr,,,,,,
+,3.28,0,19,cbr,,,,,,
+,3.2816,0,45,tcp,,,,,,
+,3.2816,0,45,tcp,,,,,,
r,3.282,0,19,cbr,,,,,,
+,3.284,0,19,cbr,,,,,,
d,3.284,0,19,cbr,,,,,,
-,3.28624,0,45,tcp,,,,,,
r,3.28792,0,45,tcp,,,,,,
-,3.288,0,19,cbr,,,,,,
+,3.288,0,19,cbr,,,,,,
+,3.28992,0,45,tcp,,,,,,
+,3.28992,0,45,tcp,,,,,,
+,3.28992,0,45,tcp,,,,,,
+,3.28992,0,45,tcp,,,,,,
+,3.28992,0,45,tcp,,,,,,
+,3.28992,0,45,tcp,,,,,,
+,3.28992,0,45,tcp,,,,,,
r,3.29,0,19,cbr,,,,,,
+,3.292,0,19,cbr,,,,,,
d,3.292,0,19,cbr,,,,,,
-,3.29456,0,45,tcp,,,,,,
-,3.296,0,19,cbr,,,,,,
+,3.296,0,19,cbr,,,,,,
r,3.29624,0,45,tcp,,,,,,
r,3.298,0,19,cbr,,,,,,
+,3.29824,0,45,tcp,,,,,,
+,3.3,0,19,cbr,,,,,,
d,3.3,0,19,cbr,,,,,,
-,3.30288,0,45,tcp,,,,,,
-,3.304,0,19,cbr,,,,,,
+,3.304,0,19,cbr,,,,,,
r,3.30456,0,45,tcp,,,,,,
r,3.306,0,19,cbr,,,,,,
+,3.30656,0,45,tcp,,,,,,
+,3.308,0,19,cbr,,,,,,
d,3.308,0,19,cbr,,,,,,
-,3.3112,0,45,tcp,,,,,,
-,3.312,0,19,cbr,,,,,,
+,3.312,0,19,cbr,,,,,,
r,3.31288,0,45,tcp,,,,,,
r,3.314,0,19,cbr,,,,,,
+,3.316,0,19,cbr,,,,,,
d,3.316,0,19,cbr,,,,,,
-,3.31952,0,45,tcp,,,,,,
-,3.32,0,19,cbr,,,,,,
+,3.32,0,19,cbr,,,,,,
r,3.3212,0,45,tcp,,,,,,
r,3.322,0,19,cbr,,,,,,
+,3.324,0,19,cbr,,,,,,
d,3.324,0,19,cbr,,,,,,
-,3.32784,0,45,tcp,,,,,,
-,3.328,0,19,cbr,,,,,,
+,3.328,0,19,cbr,,,,,,
r,3.32952,0,45,tcp,,,,,,
r,3.33,0,19,cbr,,,,,,
+,3.332,0,19,cbr,,,,,,
d,3.332,0,19,cbr,,,,,,
-,3.336,0,19,cbr,,,,,,
+,3.336,0,19,cbr,,,,,,
-,3.33616,0,45,tcp,,,,,,
r,3.33784,0,45,tcp,,,,,,
r,3.338,0,19,cbr,,,,,,
+,3.34,0,19,cbr,,,,,,
d,3.34,0,19,cbr,,,,,,
-,3.344,0,19,cbr,,,,,,
+,3.344,0,19,cbr,,,,,,
-,3.34448,0,45,tcp,,,,,,
r,3.346,0,19,cbr,,,,,,
r,3.34616,0,45,tcp,,,,,,
+,3.348,0,19,cbr,,,,,,
d,3.348,0,19,cbr,,,,,,
+,3.34816,0,45,tcp,,,,,,
-,3.352,0,19,cbr,,,,,,
+,3.352,0,19,cbr,,,,,,
-,3.3528,0,45,tcp,,,,,,
r,3.354,0,19,cbr,,,,,,
r,3.35448,0,45,tcp,,,,,,
+,3.356,0,19,cbr,,,,,,
d,3.356,0,19,cbr,,,,,,
+,3.35648,0,45,tcp,,,,,,
-,3.36,0,19,cbr,,,,,,
+,3.36,0,19,cbr,,,,,,
-,3.36112,0,45,tcp,,,,,,
r,3.362,0,19,cbr,,,,,,
r,3.3628,0,45,tcp,,,,,,
+,3.364,0,19,cbr,,,,,,
d,3.364,0,19,cbr,,,,,,
+,3.3648,0,45,tcp,,,,,,
-,3.368,0,19,cbr,,,,,,
+,3.368,0,19,cbr,,,,,,
-,3.36944,0,45,tcp,,,,,,
r,3.37,0,19,cbr,,,,,,
r,3.37112,0,45,tcp,,,,,,
+,3.372,0,19,cbr,,,,,,
d,3.372,0,19,cbr,,,,,,
+,3.37312,0,45,tcp,,,,,,
-,3.376,0,19,cbr,,,,,,
+,3.376,0,19,cbr,,,,,,
-,3.37776,0,45,tcp,,,,,,
r,3.378,0,19,cbr,,,,,,
r,3.37944,0,45,tcp,,,,,,
+,3.38,0,19,cbr,,,,,,
d,3.38,0,19,cbr,,,,,,
+,3.38144,0,45,tcp,,,,,,
-,3.384,0,19,cbr,,,,,,
+,3.384,0,19,cbr,,,,,,
r,3.386,0,19,cbr,,,,,,
-,3.38608,0,45,tcp,,,,,,
r,3.38776,0,45,tcp,,,,,,
+,3.388,0,19,cbr,,,,,,
d,3.388,0,19,cbr,,,,,,
+,3.38976,0,45,tcp,,,,,,
-,3.392,0,19,cbr,,,,,,
+,3.392,0,19,cbr,,,,,,
r,3.394,0,19,cbr,,,,,,
-,3.3944,0,45,tcp,,,,,,
+,3.396,0,19,cbr,,,,,,
d,3.396,0,19,cbr,,,,,,
r,3.39608,0,45,tcp,,,,,,
+,3.39808,0,45,tcp,,,,,,
-,3.4,0,19,cbr,,,,,,
+,3.4,0,19,cbr,,,,,,
r,3.402,0,19,cbr,,,,,,
-,3.40272,0,45,tcp,,,,,,
+,3.404,0,19,cbr,,,,,,
d,3.404,0,19,cbr,,,,,,
r,3.4044,0,45,tcp,,,,,,
+,3.4064,0,45,tcp,,,,,,
-,3.408,0,19,cbr,,,,,,
+,3.408,0,19,cbr,,,,,,
r,3.41,0,19,cbr,,,,,,
-,3.41104,0,45,tcp,,,,,,
+,3.412,0,19,cbr,,,,,,
d,3.412,0,19,cbr,,,,,,
r,3.41272,0,45,tcp,,,,,,
+,3.41472,0,45,tcp,,,,,,
+,3.41472,0,45,tcp,,,,,,
-,3.416,0,19,cbr,,,,,,
+,3.416,0,19,cbr,,,,,,
r,3.418,0,19,cbr,,,,,,
-,3.41936,0,45,tcp,,,,,,
+,3.42,0,19,cbr,,,,,,
d,3.42,0,19,cbr,,,,,,
r,3.42104,0,45,tcp,,,,,,
+,3.42304,0,45,tcp,,,,,,
-,3.424,0,19,cbr,,,,,,
+,3.424,0,19,cbr,,,,,,
r,3.426,0,19,cbr,,,,,,
-,3.42768,0,45,tcp,,,,,,
+,3.428,0,19,cbr,,,,,,
d,3.428,0,19,cbr,,,,,,
r,3.42936,0,45,tcp,,,,,,
+,3.43136,0,45,tcp,,,,,,
-,3.432,0,19,cbr,,,,,,
+,3.432,0,19,cbr,,,,,,
r,3.434,0,19,cbr,,,,,,
-,3.436,0,45,tcp,,,,,,
+,3.436,0,19,cbr,,,,,,
d,3.436,0,19,cbr,,,,,,
r,3.43768,0,45,tcp,,,,,,
+,3.43968,0,45,tcp,,,,,,
-,3.44,0,19,cbr,,,,,,
+,3.44,0,19,cbr,,,,,,
r,3.442,0,19,cbr,,,,,,
+,3.444,0,19,cbr,,,,,,
d,3.444,0,19,cbr,,,,,,
-,3.44432,0,45,tcp,,,,,,
r,3.446,0,45,tcp,,,,,,
+,3.448,0,45,tcp,,,,,,
-,3.448,0,19,cbr,,,,,,
+,3.448,0,19,cbr,,,,,,
r,3.45,0,19,cbr,,,,,,
+,3.452,0,19,cbr,,,,,,
d,3.452,0,19,cbr,,,,,,
-,3.45264,0,45,tcp,,,,,,
r,3.45432,0,45,tcp,,,,,,
-,3.456,0,19,cbr,,,,,,
+,3.456,0,19,cbr,,,,,,
+,3.45632,0,45,tcp,,,,,,
r,3.458,0,19,cbr,,,,,,
+,3.46,0,19,cbr,,,,,,
d,3.46,0,19,cbr,,,,,,
-,3.46096,0,45,tcp,,,,,,
r,3.46264,0,45,tcp,,,,,,
-,3.464,0,19,cbr,,,,,,
+,3.464,0,19,cbr,,,,,,
+,3.46464,0,45,tcp,,,,,,
r,3.466,0,19,cbr,,,,,,
+,3.468,0,19,cbr,,,,,,
d,3.468,0,19,cbr,,,,,,
-,3.46928,0,45,tcp,,,,,,
r,3.47096,0,45,tcp,,,,,,
-,3.472,0,19,cbr,,,,,,
+,3.472,0,19,cbr,,,,,,
+,3.47296,0,45,tcp,,,,,,
r,3.474,0,19,cbr,,,,,,
+,3.476,0,19,cbr,,,,,,
d,3.476,0,19,cbr,,,,,,
-,3.4776,0,45,tcp,,,,,,
r,3.47928,0,45,tcp,,,,,,
-,3.48,0,19,cbr,,,,,,
+,3.48,0,19,cbr,,,,,,
+,3.48128,0,45,tcp,,,,,,
r,3.482,0,19,cbr,,,,,,
+,3.484,0,19,cbr,,,,,,
d,3.484,0,19,cbr,,,,,,
-,3.48592,0,45,tcp,,,,,,
r,3.4876,0,45,tcp,,,,,,
-,3.488,0,19,cbr,,,,,,
+,3.488,0,19,cbr,,,,,,
+,3.4896,0,45,tcp,,,,,,
+,3.4896,0,45,tcp,,,,,,
r,3.49,0,19,cbr,,,,,,
+,3.492,0,19,cbr,,,,,,
d,3.492,0,19,cbr,,,,,,
-,3.49424,0,45,tcp,,,,,,
r,3.49592,0,45,tcp,,,,,,
-,3.496,0,19,cbr,,,,,,
+,3.496,0,19,cbr,,,,,,
+,3.49792,0,45,tcp,,,,,,
r,3.498,0,19,cbr,,,,,,
+,3.5,0,19,cbr,,,,,,
d,3.5,0,19,cbr,,,,,,
-,3.50256,0,45,tcp,,,,,,
-,3.504,0,19,cbr,,,,,,
+,3.504,0,19,cbr,,,,,,
r,3.50424,0,45,tcp,,,,,,
r,3.506,0,19,cbr,,,,,,
+,3.50624,0,45,tcp,,,,,,
+,3.508,0,19,cbr,,,,,,
d,3.508,0,19,cbr,,,,,,
-,3.51088,0,45,tcp,,,,,,
-,3.512,0,19,cbr,,,,,,
+,3.512,0,19,cbr,,,,,,
r,3.51256,0,45,tcp,,,,,,
r,3.514,0,19,cbr,,,,,,
+,3.51456,0,45,tcp,,,,,,
+,3.516,0,19,cbr,,,,,,
d,3.516,0,19,cbr,,,,,,
-,3.5192,0,45,tcp,,,,,,
-,3.52,0,19,cbr,,,,,,
+,3.52,0,19,cbr,,,,,,
r,3.52088,0,45,tcp,,,,,,
r,3.522,0,19,cbr,,,,,,
+,3.52288,0,45,tcp,,,,,,
+,3.524,0,19,cbr,,,,,,
d,3.524,0,19,cbr,,,,,,
-,3.52752,0,45,tcp,,,,,,
-,3.528,0,19,cbr,,,,,,
+,3.528,0,19,cbr,,,,,,
r,3.5292,0,45,tcp,,,,,,
r,3.53,0,19,cbr,,,,,,
+,3.5312,0,45,tcp,,,,,,
+,3.532,0,19,cbr,,,,,,
d,3.532,0,19,cbr,,,,,,
-,3.53584,0,45,tcp,,,,,,
-,3.536,0,19,cbr,,,,,,
+,3.536,0,19,cbr,,,,,,
r,3.53752,0,45,tcp,,,,,,
r,3.538,0,19,cbr,,,,,,
+,3.53952,0,45,tcp,,,,,,
+,3.54,0,19,cbr,,,,,,
d,3.54,0,19,cbr,,,,,,
-,3.544,0,19,cbr,,,,,,
+,3.544,0,19,cbr,,,,,,
-,3.54416,0,45,tcp,,,,,,
r,3.54584,0,45,tcp,,,,,,
r,3.546,0,19,cbr,,,,,,
+,3.54784,0,45,tcp,,,,,,
+,3.548,0,19,cbr,,,,,,
d,3.548,0,19,cbr,,,,,,
-,3.552,0,19,cbr,,,,,,
+,3.552,0,19,cbr,,,,,,
-,3.55248,0,45,tcp,,,,,,
r,3.554,0,19,cbr,,,,,,
r,3.55416,0,45,tcp,,,,,,
+,3.556,0,19,cbr,,,,,,
d,3.556,0,19,cbr,,,,,,
+,3.55616,0,45,tcp,,,,,,
-,3.56,0,19,cbr,,,,,,
+,3.56,0,19,cbr,,,,,,
-,3.5608,0,45,tcp,,,,,,
r,3.562,0,19,cbr,,,,,,
r,3.56248,0,45,tcp,,,,,,
+,3.564,0,19,cbr,,,,,,
d,3.564,0,19,cbr,,,,,,
+,3.56448,0,45,tcp,,,,,,
-,3.568,0,19,cbr,,,,,,
+,3.568,0,19,cbr,,,,,,
-,3.56912,0,45,tcp,,,,,,
r,3.57,0,19,cbr,,,,,,
r,3.5708,0,45,tcp,,,,,,
+,3.572,0,19,cbr,,,,,,
d,3.572,0,19,cbr,,,,,,
+,3.5728,0,45,tcp,,,,,,
-,3.576,0,19,cbr,,,,,,
+,3.576,0,19,cbr,,,,,,
-,3.57744,0,45,tcp,,,,,,
r,3.578,0,19,cbr,,,,,,
r,3.57912,0,45,tcp,,,,,,
+,3.58,0,19,cbr,,,,,,
d,3.58,0,19,cbr,,,,,,
+,3.58112,0,45,tcp,,,,,,
+,3.58112,0,45,tcp,,,,,,
-,3.584,0,19,cbr,,,,,,
+,3.584,0,19,cbr,,,,,,
-,3.58576,0,45,tcp,,,,,,
r,3.586,0,19,cbr,,,,,,
r,3.58744,0,45,tcp,,,,,,
+,3.588,0,19,cbr,,,,,,
d,3.588,0,19,cbr,,,,,,
+,3.58944,0,45,tcp,,,,,,
-,3.592,0,19,cbr,,,,,,
+,3.592,0,19,cbr,,,,,,
r,3.594,0,19,cbr,,,,,,
-,3.59408,0,45,tcp,,,,,,
r,3.59576,0,45,tcp,,,,,,
+,3.596,0,19,cbr,,,,,,
d,3.596,0,19,cbr,,,,,,
+,3.59776,0,45,tcp,,,,,,
-,3.6,0,19,cbr,,,,,,
+,3.6,0,19,cbr,,,,,,
r,3.602,0,19,cbr,,,,,,
-,3.6024,0,45,tcp,,,,,,
+,3.604,0,19,cbr,,,,,,
d,3.604,0,19,cbr,,,,,,
r,3.60408,0,45,tcp,,,,,,
+,3.60608,0,45,tcp,,,,,,
-,3.608,0,19,cbr,,,,,,
+,3.608,0,19,cbr,,,,,,
r,3.61,0,19,cbr,,,,,,
-,3.61072,0,45,tcp,,,,,,
+,3.612,0,19,cbr,,,,,,
d,3.612,0,19,cbr,,,,,,
r,3.6124,0,45,tcp,,,,,,
+,3.6144,0,45,tcp,,,,,,
-,3.616,0,19,cbr,,,,,,
+,3.616,0,19,cbr,,,,,,
r,3.618,0,19,cbr,,,,,,
-,3.61904,0,45,tcp,,,,,,
+,3.62,0,19,cbr,,,,,,
d,3.62,0,19,cbr,,,,,,
r,3.62072,0,45,tcp,,,,,,
+,3.62272,0,45,tcp,,,,,,
-,3.624,0,19,cbr,,,,,,
+,3.624,0,19,cbr,,,,,,
r,3.626,0,19,cbr,,,,,,
-,3.62736,0,45,tcp,,,,,,
+,3.628,0,19,cbr,,,,,,
d,3.628,0,19,cbr,,,,,,
r,3.62904,0,45,tcp,,,,,,
+,3.63104,0,45,tcp,,,,,,
-,3.632,0,19,cbr,,,,,,
+,3.632,0,19,cbr,,,,,,
r,3.634,0,19,cbr,,,,,,
-,3.63568,0,45,tcp,,,,,,
+,3.636,0,19,cbr,,,,,,
d,3.636,0,19,cbr,,,,,,
r,3.63736,0,45,tcp,,,,,,
+,3.63936,0,45,tcp,,,,,,
-,3.64,0,19,cbr,,,,,,
+,3.64,0,19,cbr,,,,,,
r,3.642,0,19,cbr,,,,,,
-,3.644,0,45,tcp,,,,,,
+,3.644,0,19,cbr,,,,,,
d,3.644,0,19,cbr,,,,,,
r,3.64568,0,45,tcp,,,,,,
+,3.64768,0,45,tcp,,,,,,
-,3.648,0,19,cbr,,,,,,
+,3.648,0,19,cbr,,,,,,
r,3.65,0,19,cbr,,,,,,
+,3.652,0,19,cbr,,,,,,
d,3.652,0,19,cbr,,,,,,
-,3.65232,0,45,tcp,,,,,,
r,3.654,0,45,tcp,,,,,,
+,3.656,0,45,tcp,,,,,,
-,3.656,0,19,cbr,,,,,,
+,3.656,0,19,cbr,,,,,,
r,3.658,0,19,cbr,,,,,,
+,3.66,0,19,cbr,,,,,,
d,3.66,0,19,cbr,,,,,,
-,3.66064,0,45,tcp,,,,,,
r,3.66232,0,45,tcp,,,,,,
-,3.664,0,19,cbr,,,,,,
+,3.664,0,19,cbr,,,,,,
+,3.66432,0,45,tcp,,,,,,
r,3.666,0,19,cbr,,,,,,
+,3.668,0,19,cbr,,,,,,
d,3.668,0,19,cbr,,,,,,
-,3.66896,0,45,tcp,,,,,,
r,3.67064,0,45,tcp,,,,,,
-,3.672,0,19,cbr,,,,,,
+,3.672,0,19,cbr,,,,,,
+,3.67264,0,45,tcp,,,,,,
+,3.67264,0,45,tcp,,,,,,
r,3.674,0,19,cbr,,,,,,
+,3.676,0,19,cbr,,,,,,
d,3.676,0,19,cbr,,,,,,
-,3.67728,0,45,tcp,,,,,,
r,3.67896,0,45,tcp,,,,,,
-,3.68,0,19,cbr,,,,,,
+,3.68,0,19,cbr,,,,,,
+,3.68096,0,45,tcp,,,,,,
r,3.682,0,19,cbr,,,,,,
+,3.684,0,19,cbr,,,,,,
d,3.684,0,19,cbr,,,,,,
-,3.6856,0,45,tcp,,,,,,
r,3.68728,0,45,tcp,,,,,,
-,3.688,0,19,cbr,,,,,,
+,3.688,0,19,cbr,,,,,,
+,3.68928,0,45,tcp,,,,,,
r,3.69,0,19,cbr,,,,,,
+,3.692,0,19,cbr,,,,,,
d,3.692,0,19,cbr,,,,,,
-,3.69392,0,45,tcp,,,,,,
r,3.6956,0,45,tcp,,,,,,
-,3.696,0,19,cbr,,,,,,
+,3.696,0,19,cbr,,,,,,
+,3.6976,0,45,tcp,,,,,,
r,3.698,0,19,cbr,,,,,,
+,3.7,0,19,cbr,,,,,,
d,3.7,0,19,cbr,,,,,,
-,3.70224,0,45,tcp,,,,,,
r,3.70392,0,45,tcp,,,,,,
-,3.704,0,19,cbr,,,,,,
+,3.704,0,19,cbr,,,,,,
+,3.70592,0,45,tcp,,,,,,
r,3.706,0,19,cbr,,,,,,
+,3.708,0,19,cbr,,,,,,
d,3.708,0,19,cbr,,,,,,
-,3.71056,0,45,tcp,,,,,,
-,3.712,0,19,cbr,,,,,,
+,3.712,0,19,cbr,,,,,,
r,3.71224,0,45,tcp,,,,,,
r,3.714,0,19,cbr,,,,,,
+,3.71424,0,45,tcp,,,,,,
+,3.716,0,19,cbr,,,,,,
d,3.716,0,19,cbr,,,,,,
-,3.71888,0,45,tcp,,,,,,
-,3.72,0,19,cbr,,,,,,
+,3.72,0,19,cbr,,,,,,
r,3.72056,0,45,tcp,,,,,,
r,3.722,0,19,cbr,,,,,,
+,3.72256,0,45,tcp,,,,,,
+,3.724,0,19,cbr,,,,,,
d,3.724,0,19,cbr,,,,,,
-,3.7272,0,45,tcp,,,,,,
-,3.728,0,19,cbr,,,,,,
+,3.728,0,19,cbr,,,,,,
r,3.72888,0,45,tcp,,,,,,
r,3.73,0,19,cbr,,,,,,
+,3.73088,0,45,tcp,,,,,,
+,3.732,0,19,cbr,,,,,,
d,3.732,0,19,cbr,,,,,,
-,3.73552,0,45,tcp,,,,,,
-,3.736,0,19,cbr,,,,,,
+,3.736,0,19,cbr,,,,,,
r,3.7372,0,45,tcp,,,,,,
r,3.738,0,19,cbr,,,,,,
+,3.7392,0,45,tcp,,,,,,
+,3.74,0,19,cbr,,,,,,
d,3.74,0,19,cbr,,,,,,
-,3.74384,0,45,tcp,,,,,,
-,3.744,0,19,cbr,,,,,,
+,3.744,0,19,cbr,,,,,,
r,3.74552,0,45,tcp,,,,,,
r,3.746,0,19,cbr,,,,,,
+,3.74752,0,45,tcp,,,,,,
+,3.748,0,19,cbr,,,,,,
d,3.748,0,19,cbr,,,,,,
-,3.752,0,19,cbr,,,,,,
+,3.752,0,19,cbr,,,,,,
-,3.75216,0,45,tcp,,,,,,
r,3.75384,0,45,tcp,,,,,,
r,3.754,0,19,cbr,,,,,,
+,3.75584,0,45,tcp,,,,,,
+,3.756,0,19,cbr,,,,,,
d,3.756,0,19,cbr,,,,,,
-,3.76,0,19,cbr,,,,,,
+,3.76,0,19,cbr,,,,,,
-,3.76048,0,45,tcp,,,,,,
r,3.762,0,19,cbr,,,,,,
r,3.76216,0,45,tcp,,,,,,
+,3.764,0,19,cbr,,,,,,
d,3.764,0,19,cbr,,,,,,
+,3.76416,0,45,tcp,,,,,,
-,3.768,0,19,cbr,,,,,,
+,3.768,0,19,cbr,,,,,,
-,3.7688,0,45,tcp,,,,,,
r,3.77,0,19,cbr,,,,,,
r,3.77048,0,45,tcp,,,,,,
+,3.772,0,19,cbr,,,,,,
d,3.772,0,19,cbr,,,,,,
+,3.77248,0,45,tcp,,,,,,
-,3.776,0,19,cbr,,,,,,
+,3.776,0,19,cbr,,,,,,
-,3.77712,0,45,tcp,,,,,,
r,3.778,0,19,cbr,,,,,,
r,3.7788,0,45,tcp,,,,,,
+,3.78,0,19,cbr,,,,,,
d,3.78,0,19,cbr,,,,,,
+,3.7808,0,45,tcp,,,,,,
+,3.7808,0,45,tcp,,,,,,
-,3.784,0,19,cbr,,,,,,
+,3.784,0,19,cbr,,,,,,
-,3.78544,0,45,tcp,,,,,,
r,3.786,0,19,cbr,,,,,,
r,3.78712,0,45,tcp,,,,,,
+,3.788,0,19,cbr,,,,,,
d,3.788,0,19,cbr,,,,,,
+,3.78912,0,45,tcp,,,,,,
-,3.792,0,19,cbr,,,,,,
+,3.792,0,19,cbr,,,,,,
-,3.79376,0,45,tcp,,,,,,
r,3.794,0,19,cbr,,,,,,
r,3.79544,0,45,tcp,,,,,,
+,3.796,0,19,cbr,,,,,,
d,3.796,0,19,cbr,,,,,,
+,3.79744,0,45,tcp,,,,,,
-,3.8,0,19,cbr,,,,,,
+,3.8,0,19,cbr,,,,,,
r,3.802,0,19,cbr,,,,,,
-,3.80208,0,45,tcp,,,,,,
r,3.80376,0,45,tcp,,,,,,
+,3.804,0,19,cbr,,,,,,
d,3.804,0,19,cbr,,,,,,
+,3.80576,0,45,tcp,,,,,,
-,3.808,0,19,cbr,,,,,,
+,3.808,0,19,cbr,,,,,,
r,3.81,0,19,cbr,,,,,,
-,3.8104,0,45,tcp,,,,,,
+,3.812,0,19,cbr,,,,,,
d,3.812,0,19,cbr,,,,,,
r,3.81208,0,45,tcp,,,,,,
+,3.81408,0,45,tcp,,,,,,
-,3.816,0,19,cbr,,,,,,
+,3.816,0,19,cbr,,,,,,
r,3.818,0,19,cbr,,,,,,
-,3.81872,0,45,tcp,,,,,,
+,3.82,0,19,cbr,,,,,,
d,3.82,0,19,cbr,,,,,,
r,3.8204,0,45,tcp,,,,,,
+,3.8224,0,45,tcp,,,,,,
-,3.824,0,19,cbr,,,,,,
+,3.824,0,19,cbr,,,,,,
r,3.826,0,19,cbr,,,,,,
-,3.82704,0,45,tcp,,,,,,
+,3.828,0,19,cbr,,,,,,
d,3.828,0,19,cbr,,,,,,
r,3.82872,0,45,tcp,,,,,,
+,3.83072,0,45,tcp,,,,,,
-,3.832,0,19,cbr,,,,,,
+,3.832,0,19,cbr,,,,,,
r,3.834,0,19,cbr,,,,,,
-,3.83536,0,45,tcp,,,,,,
+,3.836,0,19,cbr,,,,,,
d,3.836,0,19,cbr,,,,,,
r,3.83704,0,45,tcp,,,,,,
+,3.83904,0,45,tcp,,,,,,
-,3.84,0,19,cbr,,,,,,
+,3.84,0,19,cbr,,,,,,
r,3.842,0,19,cbr,,,,,,
-,3.84368,0,45,tcp,,,,,,
+,3.844,0,19,cbr,,,,,,
d,3.844,0,19,cbr,,,,,,
r,3.84536,0,45,tcp,,,,,,
+,3.84736,0,45,tcp,,,,,,
-,3.848,0,19,cbr,,,,,,
+,3.848,0,19,cbr,,,,,,
r,3.85,0,19,cbr,,,,,,
-,3.852,0,45,tcp,,,,,,
+,3.852,0,19,cbr,,,,,,
d,3.852,0,19,cbr,,,,,,
r,3.85368,0,45,tcp,,,,,,
+,3.85568,0,45,tcp,,,,,,
-,3.856,0,19,cbr,,,,,,
+,3.856,0,19,cbr,,,,,,
r,3.858,0,19,cbr,,,,,,
+,3.86,0,19,cbr,,,,,,
d,3.86,0,19,cbr,,,,,,
-,3.86032,0,45,tcp,,,,,,
r,3.862,0,45,tcp,,,,,,
+,3.864,0,45,tcp,,,,,,
-,3.864,0,19,cbr,,,,,,
+,3.864,0,19,cbr,,,,,,
r,3.866,0,19,cbr,,,,,,
+,3.868,0,19,cbr,,,,,,
d,3.868,0,19,cbr,,,,,,
-,3.86864,0,45,tcp,,,,,,
r,3.87032,0,45,tcp,,,,,,
-,3.872,0,19,cbr,,,,,,
+,3.872,0,19,cbr,,,,,,
+,3.87232,0,45,tcp,,,,,,
r,3.874,0,19,cbr,,,,,,
+,3.876,0,19,cbr,,,,,,
d,3.876,0,19,cbr,,,,,,
-,3.87696,0,45,tcp,,,,,,
r,3.87864,0,45,tcp,,,,,,
-,3.88,0,19,cbr,,,,,,
+,3.88,0,19,cbr,,,,,,
+,3.88064,0,45,tcp,,,,,,
r,3.882,0,19,cbr,,,,,,
+,3.884,0,19,cbr,,,,,,
d,3.884,0,19,cbr,,,,,,
-,3.88528,0,45,tcp,,,,,,
r,3.88696,0,45,tcp,,,,,,
-,3.888,0,19,cbr,,,,,,
+,3.888,0,19,cbr,,,,,,
+,3.88896,0,45,tcp,,,,,,
+,3.88896,0,45,tcp,,,,,,
r,3.89,0,19,cbr,,,,,,
+,3.892,0,19,cbr,,,,,,
d,3.892,0,19,cbr,,,,,,
-,3.8936,0,45,tcp,,,,,,
r,3.89528,0,45,tcp,,,,,,
-,3.896,0,19,cbr,,,,,,
+,3.896,0,19,cbr,,,,,,
+,3.89728,0,45,tcp,,,,,,
r,3.898,0,19,cbr,,,,,,
+,3.9,0,19,cbr,,,,,,
d,3.9,0,19,cbr,,,,,,
-,3.90192,0,45,tcp,,,,,,
r,3.9036,0,45,tcp,,,,,,
-,3.904,0,19,cbr,,,,,,
+,3.904,0,19,cbr,,,,,,
+,3.9056,0,45,tcp,,,,,,
r,3.906,0,19,cbr,,,,,,
+,3.908,0,19,cbr,,,,,,
d,3.908,0,19,cbr,,,,,,
-,3.91024,0,45,tcp,,,,,,
r,3.91192,0,45,tcp,,,,,,
-,3.912,0,19,cbr,,,,,,
+,3.912,0,19,cbr,,,,,,
+,3.91392,0,45,tcp,,,,,,
r,3.914,0,19,cbr,,,,,,
+,3.916,0,19,cbr,,,,,,
d,3.916,0,19,cbr,,,,,,
-,3.91856,0,45,tcp,,,,,,
-,3.92,0,19,cbr,,,,,,
+,3.92,0,19,cbr,,,,,,
r,3.92024,0,45,tcp,,,,,,
r,3.922,0,19,cbr,,,,,,
+,3.92224,0,45,tcp,,,,,,
+,3.924,0,19,cbr,,,,,,
d,3.924,0,19,cbr,,,,,,
-,3.92688,0,45,tcp,,,,,,
-,3.928,0,19,cbr,,,,,,
+,3.928,0,19,cbr,,,,,,
r,3.92856,0,45,tcp,,,,,,
r,3.93,0,19,cbr,,,,,,
+,3.93056,0,45,tcp,,,,,,
+,3.932,0,19,cbr,,,,,,
d,3.932,0,19,cbr,,,,,,
-,3.9352,0,45,tcp,,,,,,
-,3.936,0,19,cbr,,,,,,
+,3.936,0,19,cbr,,,,,,
r,3.93688,0,45,tcp,,,,,,
r,3.938,0,19,cbr,,,,,,
+,3.93888,0,45,tcp,,,,,,
+,3.94,0,19,cbr,,,,,,
d,3.94,0,19,cbr,,,,,,
-,3.94352,0,45,tcp,,,,,,
-,3.944,0,19,cbr,,,,,,
+,3.944,0,19,cbr,,,,,,
r,3.9452,0,45,tcp,,,,,,
r,3.946,0,19,cbr,,,,,,
+,3.9472,0,45,tcp,,,,,,
+,3.948,0,19,cbr,,,,,,
d,3.948,0,19,cbr,,,,,,
-,3.95184,0,45,tcp,,,,,,
-,3.952,0,19,cbr,,,,,,
+,3.952,0,19,cbr,,,,,,
r,3.95352,0,45,tcp,,,,,,
r,3.954,0,19,cbr,,,,,,
+,3.95552,0,45,tcp,,,,,,
+,3.956,0,19,cbr,,,,,,
d,3.956,0,19,cbr,,,,,,
-,3.96,0,19,cbr,,,,,,
+,3.96,0,19,cbr,,,,,,
-,3.96016,0,45,tcp,,,,,,
r,3.96184,0,45,tcp,,,,,,
r,3.962,0,19,cbr,,,,,,
+,3.96384,0,45,tcp,,,,,,
+,3.964,0,19,cbr,,,,,,
d,3.964,0,19,cbr,,,,,,
-,3.968,0,19,cbr,,,,,,
+,3.968,0,19,cbr,,,,,,
-,3.96848,0,45,tcp,,,,,,
r,3.97,0,19,cbr,,,,,,
r,3.97016,0,45,tcp,,,,,,
+,3.972,0,19,cbr,,,,,,
d,3.972,0,19,cbr,,,,,,
+,3.97216,0,45,tcp,,,,,,
-,3.976,0,19,cbr,,,,,,
+,3.976,0,19,cbr,,,,,,
-,3.9768,0,45,tcp,,,,,,
r,3.978,0,19,cbr,,,,,,
r,3.97848,0,45,tcp,,,,,,
+,3.98,0,19,cbr,,,,,,
d,3.98,0,19,cbr,,,,,,
+,3.98048,0,45,tcp,,,,,,
-,3.984,0,19,cbr,,,,,,
+,3.984,0,19,cbr,,,,,,
-,3.98512,0,45,tcp,,,,,,
r,3.986,0,19,cbr,,,,,,
r,3.9868,0,45,tcp,,,,,,
+,3.988,0,19,cbr,,,,,,
d,3.988,0,19,cbr,,,,,,
+,3.9888,0,45,tcp,,,,,,
-,3.992,0,19,cbr,,,,,,
+,3.992,0,19,cbr,,,,,,
-,3.99344,0,45,tcp,,,,,,
r,3.994,0,19,cbr,,,,,,
r,3.99512,0,45,tcp,,,,,,
+,3.996,0,19,cbr,,,,,,
d,3.996,0,19,cbr,,,,,,
+,3.99712,0,45,tcp,,,,,,
-,4,0,19,cbr,,,,,,
+,4,0,19,cbr,,,,,,
-,4.00176,0,45,tcp,,,,,,
r,4.002,0,19,cbr,,,,,,
r,4.00344,0,45,tcp,,,,,,
+,4.004,0,19,cbr,,,,,,
d,4.004,0,19,cbr,,,,,,
+,4.008,0,19,cbr,,,,,,
d,4.008,0,19,cbr,,,,,,
-,4.008,0,19,cbr,,,,,,
r,4.01,0,19,cbr,,,,,,
-,4.01008,0,45,tcp,,,,,,
r,4.01176,0,45,tcp,,,,,,
+,4.012,0,19,cbr,,,,,,
+,4.016,0,19,cbr,,,,,,
d,4.016,0,19,cbr,,,,,,
-,4.016,0,19,cbr,,,,,,
r,4.018,0,19,cbr,,,,,,
-,4.0184,0,45,tcp,,,,,,
+,4.02,0,19,cbr,,,,,,
r,4.02008,0,45,tcp,,,,,,
+,4.024,0,19,cbr,,,,,,
d,4.024,0,19,cbr,,,,,,
-,4.024,0,19,cbr,,,,,,
r,4.026,0,19,cbr,,,,,,
-,4.02672,0,45,tcp,,,,,,
+,4.028,0,19,cbr,,,,,,
r,4.0284,0,45,tcp,,,,,,
+,4.032,0,19,cbr,,,,,,
d,4.032,0,19,cbr,,,,,,
-,4.032,0,19,cbr,,,,,,
r,4.034,0,19,cbr,,,,,,
-,4.03504,0,45,tcp,,,,,,
+,4.036,0,19,cbr,,,,,,
r,4.03672,0,45,tcp,,,,,,
+,4.04,0,19,cbr,,,,,,
d,4.04,0,19,cbr,,,,,,
-,4.04,0,19,cbr,,,,,,
r,4.042,0,19,cbr,,,,,,
-,4.04336,0,45,tcp,,,,,,
+,4.044,0,19,cbr,,,,,,
r,4.04504,0,45,tcp,,,,,,
+,4.048,0,19,cbr,,,,,,
d,4.048,0,19,cbr,,,,,,
-,4.048,0,19,cbr,,,,,,
r,4.05,0,19,cbr,,,,,,
-,4.05168,0,45,tcp,,,,,,
+,4.052,0,19,cbr,,,,,,
r,4.05336,0,45,tcp,,,,,,
+,4.056,0,19,cbr,,,,,,
d,4.056,0,19,cbr,,,,,,
-,4.056,0,19,cbr,,,,,,
r,4.058,0,19,cbr,,,,,,
-,4.06,0,45,tcp,,,,,,
+,4.06,0,19,cbr,,,,,,
r,4.06168,0,45,tcp,,,,,,
+,4.064,0,19,cbr,,,,,,
d,4.064,0,19,cbr,,,,,,
-,4.064,0,19,cbr,,,,,,
r,4.066,0,19,cbr,,,,,,
+,4.068,0,19,cbr,,,,,,
-,4.06832,0,45,tcp,,,,,,
r,4.07,0,45,tcp,,,,,,
+,4.072,0,19,cbr,,,,,,
d,4.072,0,19,cbr,,,,,,
-,4.072,0,19,cbr,,,,,,
r,4.074,0,19,cbr,,,,,,
+,4.076,0,19,cbr,,,,,,
-,4.07664,0,45,tcp,,,,,,
r,4.07832,0,45,tcp,,,,,,
+,4.08,0,19,cbr,,,,,,
d,4.08,0,19,cbr,,,,,,
-,4.08,0,19,cbr,,,,,,
r,4.082,0,19,cbr,,,,,,
+,4.084,0,19,cbr,,,,,,
-,4.08496,0,45,tcp,,,,,,
r,4.08664,0,45,tcp,,,,,,
+,4.088,0,19,cbr,,,,,,
d,4.088,0,19,cbr,,,,,,
-,4.088,0,19,cbr,,,,,,
r,4.09,0,19,cbr,,,,,,
+,4.092,0,19,cbr,,,,,,
r,4.09496,0,45,tcp,,,,,,
+,4.096,0,19,cbr,,,,,,
d,4.096,0,19,cbr,,,,,,
-,4.096,0,19,cbr,,,,,,
r,4.098,0,19,cbr,,,,,,
+,4.1,0,19,cbr,,,,,,
r,4.10328,0,45,tcp,,,,,,
+,4.104,0,19,cbr,,,,,,
d,4.104,0,19,cbr,,,,,,
-,4.104,0,19,cbr,,,,,,
r,4.106,0,19,cbr,,,,,,
+,4.108,0,19,cbr,,,,,,
+,4.112,0,19,cbr,,,,,,
d,4.112,0,19,cbr,,,,,,
-,4.112,0,19,cbr,,,,,,
r,4.114,0,19,cbr,,,,,,
+,4.116,0,19,cbr,,,,,,
+,4.12,0,19,cbr,,,,,,
d,4.12,0,19,cbr,,,,,,
-,4.12,0,19,cbr,,,,,,
r,4.122,0,19,cbr,,,,,,
+,4.124,0,19,cbr,,,,,,
+,4.128,0,19,cbr,,,,,,
d,4.128,0,19,cbr,,,,,,
-,4.128,0,19,cbr,,,,,,
r,4.13,0,19,cbr,,,,,,
+,4.132,0,19,cbr,,,,,,
+,4.136,0,19,cbr,,,,,,
d,4.136,0,19,cbr,,,,,,
-,4.136,0,19,cbr,,,,,,
r,4.138,0,19,cbr,,,,,,
+,4.14,0,19,cbr,,,,,,
+,4.144,0,19,cbr,,,,,,
d,4.144,0,19,cbr,,,,,,
-,4.144,0,19,cbr,,,,,,
r,4.146,0,19,cbr,,,,,,
+,4.148,0,19,cbr,,,,,,
+,4.152,0,19,cbr,,,,,,
d,4.152,0,19,cbr,,,,,,
-,4.152,0,19,cbr,,,,,,
r,4.154,0,19,cbr,,,,,,
+,4.156,0,19,cbr,,,,,,
+,4.16,0,19,cbr,,,,,,
d,4.16,0,19,cbr,,,,,,
-,4.16,0,19,cbr,,,,,,
r,4.162,0,19,cbr,,,,,,
+,4.164,0,19,cbr,,,,,,
+,4.168,0,19,cbr,,,,,,
d,4.168,0,19,cbr,,,,,,
-,4.168,0,19,cbr,,,,,,
r,4.17,0,19,cbr,,,,,,
+,4.172,0,19,cbr,,,,,,
+,4.176,0,19,cbr,,,,,,
d,4.176,0,19,cbr,,,,,,
-,4.176,0,19,cbr,,,,,,
r,4.178,0,19,cbr,,,,,,
+,4.18,0,19,cbr,,,,,,
+,4.184,0,19,cbr,,,,,,
d,4.184,0,19,cbr,,,,,,
-,4.184,0,19,cbr,,,,,,
r,4.186,0,19,cbr,,,,,,
+,4.188,0,19,cbr,,,,,,
d,4.188,0,19,cbr,,,,,,
+,4.192,0,19,cbr,,,,,,
d,4.192,0,19,cbr,,,,,,
-,4.192,0,19,cbr,,,,,,
r,4.194,0,19,cbr,,,,,,
+,4.196,0,19,cbr,,,,,,
d,4.196,0,19,cbr,,,,,,
+,4.2,0,19,cbr,,,,,,
d,4.2,0,19,cbr,,,,,,
-,4.2,0,19,cbr,,,,,,
r,4.202,0,19,cbr,,,,,,
+,4.204,0,19,cbr,,,,,,
d,4.204,0,19,cbr,,,,,,
+,4.208,0,19,cbr,,,,,,
d,4.208,0,19,cbr,,,,,,
-,4.208,0,19,cbr,,,,,,
r,4.21,0,19,cbr,,,,,,
+,4.212,0,19,cbr,,,,,,
d,4.212,0,19,cbr,,,,,,
+,4.216,0,19,cbr,,,,,,
d,4.216,0,19,cbr,,,,,,
-,4.216,0,19,cbr,,,,,,
r,4.218,0,19,cbr,,,,,,
+,4.22,0,19,cbr,,,,,,
d,4.22,0,19,cbr,,,,,,
+,4.224,0,19,cbr,,,,,,
d,4.224,0,19,cbr,,,,,,
-,4.224,0,19,cbr,,,,,,
r,4.226,0,19,cbr,,,,,,
+,4.228,0,19,cbr,,,,,,
+,4.232,0,19,cbr,,,,,,
d,4.232,0,19,cbr,,,,,,
-,4.232,0,19,cbr,,,,,,
r,4.234,0,19,cbr,,,,,,
+,4.236,0,19,cbr,,,,,,
+,4.24,0,19,cbr,,,,,,
d,4.24,0,19,cbr,,,,,,
-,4.24,0,19,cbr,,,,,,
r,4.242,0,19,cbr,,,,,,
+,4.244,0,19,cbr,,,,,,
+,4.248,0,19,cbr,,,,,,
d,4.248,0,19,cbr,,,,,,
-,4.248,0,19,cbr,,,,,,
r,4.25,0,19,cbr,,,,,,
+,4.252,0,19,cbr,,,,,,
+,4.256,0,19,cbr,,,,,,
d,4.256,0,19,cbr,,,,,,
-,4.256,0,19,cbr,,,,,,
r,4.258,0,19,cbr,,,,,,
+,4.26,0,19,cbr,,,,,,
+,4.264,0,19,cbr,,,,,,
d,4.264,0,19,cbr,,,,,,
-,4.264,0,19,cbr,,,,,,
r,4.266,0,19,cbr,,,,,,
+,4.268,0,19,cbr,,,,,,
+,4.272,0,19,cbr,,,,,,
d,4.272,0,19,cbr,,,,,,
-,4.272,0,19,cbr,,,,,,
r,4.274,0,19,cbr,,,,,,
+,4.276,0,19,cbr,,,,,,
+,4.28,0,19,cbr,,,,,,
d,4.28,0,19,cbr,,,,,,
-,4.28,0,19,cbr,,,,,,
r,4.282,0,19,cbr,,,,,,
+,4.284,0,19,cbr,,,,,,
+,4.288,0,19,cbr,,,,,,
d,4.288,0,19,cbr,,,,,,
-,4.288,0,19,cbr,,,,,,
r,4.29,0,19,cbr,,,,,,
+,4.292,0,19,cbr,,,,,,
+,4.296,0,19,cbr,,,,,,
d,4.296,0,19,cbr,,,,,,
-,4.296,0,19,cbr,,,,,,
r,4.298,0,19,cbr,,,,,,
+,4.3,0,19,cbr,,,,,,
+,4.304,0,19,cbr,,,,,,
d,4.304,0,19,cbr,,,,,,
-,4.304,0,19,cbr,,,,,,
r,4.306,0,19,cbr,,,,,,
+,4.308,0,19,cbr,,,,,,
+,4.312,0,19,cbr,,,,,,
d,4.312,0,19,cbr,,,,,,
-,4.312,0,19,cbr,,,,,,
r,4.314,0,19,cbr,,,,,,
+,4.316,0,19,cbr,,,,,,
+,4.32,0,19,cbr,,,,,,
d,4.32,0,19,cbr,,,,,,
-,4.32,0,19,cbr,,,,,,
r,4.322,0,19,cbr,,,,,,
+,4.324,0,19,cbr,,,,,,
+,4.328,0,19,cbr,,,,,,
d,4.328,0,19,cbr,,,,,,
-,4.328,0,19,cbr,,,,,,
r,4.33,0,19,cbr,,,,,,
+,4.332,0,19,cbr,,,,,,
+,4.336,0,19,cbr,,,,,,
d,4.336,0,19,cbr,,,,,,
-,4.336,0,19,cbr,,,,,,
r,4.338,0,19,cbr,,,,,,
+,4.34,0,19,cbr,,,,,,
+,4.344,0,19,cbr,,,,,,
d,4.344,0,19,cbr,,,,,,
-,4.344,0,19,cbr,,,,,,
r,4.346,0,19,cbr,,,,,,
+,4.348,0,19,cbr,,,,,,
+,4.352,0,19,cbr,,,,,,
d,4.352,0,19,cbr,,,,,,
-,4.352,0,19,cbr,,,,,,
r,4.354,0,19,cbr,,,,,,
+,4.356,0,19,cbr,,,,,,
+,4.36,0,19,cbr,,,,,,
d,4.36,0,19,cbr,,,,,,
-,4.36,0,19,cbr,,,,,,
r,4.362,0,19,cbr,,,,,,
+,4.364,0,19,cbr,,,,,,
+,4.368,0,19,cbr,,,,,,
d,4.368,0,19,cbr,,,,,,
-,4.368,0,19,cbr,,,,,,
r,4.37,0,19,cbr,,,,,,
+,4.372,0,19,cbr,,,,,,
+,4.376,0,19,cbr,,,,,,
d,4.376,0,19,cbr,,,,,,
-,4.376,0,19,cbr,,,,,,
r,4.378,0,19,cbr,,,,,,
+,4.38,0,19,cbr,,,,,,
+,4.384,0,19,cbr,,,,,,
d,4.384,0,19,cbr,,,,,,
-,4.384,0,19,cbr,,,,,,
r,4.386,0,19,cbr,,,,,,
+,4.388,0,19,cbr,,,,,,
+,4.392,0,19,cbr,,,,,,
d,4.392,0,19,cbr,,,,,,
-,4.392,0,19,cbr,,,,,,
r,4.394,0,19,cbr,,,,,,
+,4.396,0,19,cbr,,,,,,
+,4.4,0,19,cbr,,,,,,
d,4.4,0,19,cbr,,,,,,
-,4.4,0,19,cbr,,,,,,
r,4.402,0,19,cbr,,,,,,
+,4.404,0,19,cbr,,,,,,
+,4.408,0,19,cbr,,,,,,
d,4.408,0,19,cbr,,,,,,
-,4.408,0,19,cbr,,,,,,
r,4.41,0,19,cbr,,,,,,
+,4.412,0,19,cbr,,,,,,
+,4.416,0,19,cbr,,,,,,
d,4.416,0,19,cbr,,,,,,
-,4.416,0,19,cbr,,,,,,
r,4.418,0,19,cbr,,,,,,
+,4.42,0,19,cbr,,,,,,
+,4.424,0,19,cbr,,,,,,
d,4.424,0,19,cbr,,,,,,
-,4.424,0,19,cbr,,,,,,
r,4.426,0,19,cbr,,,,,,
+,4.428,0,19,cbr,,,,,,
+,4.432,0,19,cbr,,,,,,
d,4.432,0,19,cbr,,,,,,
-,4.432,0,19,cbr,,,,,,
r,4.434,0,19,cbr,,,,,,
+,4.436,0,19,cbr,,,,,,
+,4.44,0,19,cbr,,,,,,
d,4.44,0,19,cbr,,,,,,
-,4.44,0,19,cbr,,,,,,
r,4.442,0,19,cbr,,,,,,
+,4.444,0,19,cbr,,,,,,
+,4.448,0,19,cbr,,,,,,
d,4.448,0,19,cbr,,,,,,
-,4.448,0,19,cbr,,,,,,
r,4.45,0,19,cbr,,,,,,
+,4.452,0,19,cbr,,,,,,
+,4.456,0,19,cbr,,,,,,
d,4.456,0,19,cbr,,,,,,
-,4.456,0,19,cbr,,,,,,
r,4.458,0,19,cbr,,,,,,
+,4.46,0,19,cbr,,,,,,
+,4.464,0,19,cbr,,,,,,
d,4.464,0,19,cbr,,,,,,
-,4.464,0,19,cbr,,,,,,
r,4.466,0,19,cbr,,,,,,
+,4.468,0,19,cbr,,,,,,
+,4.472,0,19,cbr,,,,,,
d,4.472,0,19,cbr,,,,,,
-,4.472,0,19,cbr,,,,,,
r,4.474,0,19,cbr,,,,,,
+,4.476,0,19,cbr,,,,,,
+,4.48,0,19,cbr,,,,,,
d,4.48,0,19,cbr,,,,,,
-,4.48,0,19,cbr,,,,,,
r,4.482,0,19,cbr,,,,,,
+,4.484,0,19,cbr,,,,,,
+,4.488,0,19,cbr,,,,,,
d,4.488,0,19,cbr,,,,,,
-,4.488,0,19,cbr,,,,,,
r,4.49,0,19,cbr,,,,,,
+,4.492,0,19,cbr,,,,,,
+,4.496,0,19,cbr,,,,,,
d,4.496,0,19,cbr,,,,,,
-,4.496,0,19,cbr,,,,,,
r,4.498,0,19,cbr,,,,,,
+,4.5,0,19,cbr,,,,,,
+,4.504,0,19,cbr,,,,,,
d,4.504,0,19,cbr,,,,,,
-,4.504,0,19,cbr,,,,,,
r,4.506,0,19,cbr,,,,,,
+,4.508,0,19,cbr,,,,,,
+,4.512,0,19,cbr,,,,,,
d,4.512,0,19,cbr,,,,,,
-,4.512,0,19,cbr,,,,,,
r,4.514,0,19,cbr,,,,,,
+,4.516,0,19,cbr,,,,,,
+,4.52,0,19,cbr,,,,,,
d,4.52,0,19,cbr,,,,,,
-,4.52,0,19,cbr,,,,,,
r,4.522,0,19,cbr,,,,,,
+,4.524,0,19,cbr,,,,,,
+,4.528,0,19,cbr,,,,,,
d,4.528,0,19,cbr,,,,,,
-,4.528,0,19,cbr,,,,,,
r,4.53,0,19,cbr,,,,,,
+,4.532,0,19,cbr,,,,,,
+,4.536,0,19,cbr,,,,,,
d,4.536,0,19,cbr,,,,,,
-,4.536,0,19,cbr,,,,,,
r,4.538,0,19,cbr,,,,,,
+,4.54,0,19,cbr,,,,,,
+,4.544,0,19,cbr,,,,,,
d,4.544,0,19,cbr,,,,,,
-,4.544,0,19,cbr,,,,,,
r,4.546,0,19,cbr,,,,,,
+,4.548,0,19,cbr,,,,,,
+,4.552,0,19,cbr,,,,,,
d,4.552,0,19,cbr,,,,,,
-,4.552,0,19,cbr,,,,,,
r,4.554,0,19,cbr,,,,,,
+,4.556,0,19,cbr,,,,,,
+,4.56,0,19,cbr,,,,,,
d,4.56,0,19,cbr,,,,,,
-,4.56,0,19,cbr,,,,,,
r,4.562,0,19,cbr,,,,,,
+,4.564,0,19,cbr,,,,,,
+,4.568,0,19,cbr,,,,,,
d,4.568,0,19,cbr,,,,,,
-,4.568,0,19,cbr,,,,,,
r,4.57,0,19,cbr,,,,,,
+,4.572,0,19,cbr,,,,,,
+,4.576,0,19,cbr,,,,,,
d,4.576,0,19,cbr,,,,,,
-,4.5768,0,19,cbr,,,,,,
r,4.578,0,19,cbr,,,,,,
+,4.58,0,19,cbr,,,,,,
+,4.584,0,19,cbr,,,,,,
-,4.5848,0,19,cbr,,,,,,
r,4.586,0,19,cbr,,,,,,
+,4.588,0,19,cbr,,,,,,
+,4.592,0,19,cbr,,,,,,
-,4.5928,0,19,cbr,,,,,,
r,4.5948,0,19,cbr,,,,,,
+,4.596,0,19,cbr,,,,,,
+,4.6,0,19,cbr,,,,,,
-,4.6008,0,19,cbr,,,,,,
r,4.6028,0,19,cbr,,,,,,
+,4.604,0,19,cbr,,,,,,
+,4.608,0,19,cbr,,,,,,
-,4.6088,0,19,cbr,,,,,,
r,4.6108,0,19,cbr,,,,,,
+,4.612,0,19,cbr,,,,,,
+,4.616,0,19,cbr,,,,,,
-,4.6168,0,19,cbr,,,,,,
r,4.6188,0,19,cbr,,,,,,
+,4.62,0,19,cbr,,,,,,
+,4.624,0,19,cbr,,,,,,
d,4.624,0,19,cbr,,,,,,
-,4.6248,0,19,cbr,,,,,,
r,4.6268,0,19,cbr,,,,,,
+,4.628,0,19,cbr,,,,,,
+,4.632,0,19,cbr,,,,,,
d,4.632,0,19,cbr,,,,,,
-,4.6328,0,19,cbr,,,,,,
r,4.6348,0,19,cbr,,,,,,
+,4.636,0,19,cbr,,,,,,
+,4.64,0,19,cbr,,,,,,
d,4.64,0,19,cbr,,,,,,
-,4.6408,0,19,cbr,,,,,,
r,4.6428,0,19,cbr,,,,,,
+,4.644,0,19,cbr,,,,,,
+,4.648,0,19,cbr,,,,,,
d,4.648,0,19,cbr,,,,,,
-,4.6488,0,19,cbr,,,,,,
r,4.6508,0,19,cbr,,,,,,
+,4.652,0,19,cbr,,,,,,
+,4.656,0,19,cbr,,,,,,
d,4.656,0,19,cbr,,,,,,
-,4.6568,0,19,cbr,,,,,,
r,4.6588,0,19,cbr,,,,,,
+,4.66,0,19,cbr,,,,,,
+,4.664,0,19,cbr,,,,,,
d,4.664,0,19,cbr,,,,,,
-,4.6648,0,19,cbr,,,,,,
r,4.6668,0,19,cbr,,,,,,
+,4.668,0,19,cbr,,,,,,
+,4.672,0,19,cbr,,,,,,
d,4.672,0,19,cbr,,,,,,
-,4.6728,0,19,cbr,,,,,,
r,4.6748,0,19,cbr,,,,,,
+,4.676,0,19,cbr,,,,,,
+,4.68,0,19,cbr,,,,,,
d,4.68,0,19,cbr,,,,,,
-,4.6808,0,19,cbr,,,,,,
r,4.6828,0,19,cbr,,,,,,
+,4.684,0,19,cbr,,,,,,
+,4.688,0,19,cbr,,,,,,
d,4.688,0,19,cbr,,,,,,
-,4.6888,0,19,cbr,,,,,,
r,4.6908,0,19,cbr,,,,,,
+,4.692,0,19,cbr,,,,,,
+,4.696,0,19,cbr,,,,,,
d,4.696,0,19,cbr,,,,,,
-,4.6968,0,19,cbr,,,,,,
r,4.6988,0,19,cbr,,,,,,
+,4.7,0,19,cbr,,,,,,
+,4.704,0,19,cbr,,,,,,
d,4.704,0,19,cbr,,,,,,
-,4.7048,0,19,cbr,,,,,,
r,4.7068,0,19,cbr,,,,,,
+,4.708,0,19,cbr,,,,,,
+,4.712,0,19,cbr,,,,,,
d,4.712,0,19,cbr,,,,,,
-,4.7128,0,19,cbr,,,,,,
r,4.7148,0,19,cbr,,,,,,
+,4.716,0,19,cbr,,,,,,
+,4.72,0,19,cbr,,,,,,
d,4.72,0,19,cbr,,,,,,
-,4.7208,0,19,cbr,,,,,,
r,4.7228,0,19,cbr,,,,,,
+,4.724,0,19,cbr,,,,,,
+,4.728,0,19,cbr,,,,,,
d,4.728,0,19,cbr,,,,,,
-,4.7288,0,19,cbr,,,,,,
r,4.7308,0,19,cbr,,,,,,
+,4.732,0,19,cbr,,,,,,
+,4.736,0,19,cbr,,,,,,
d,4.736,0,19,cbr,,,,,,
-,4.7368,0,19,cbr,,,,,,
r,4.7388,0,19,cbr,,,,,,
+,4.74,0,19,cbr,,,,,,
+,4.744,0,19,cbr,,,,,,
d,4.744,0,19,cbr,,,,,,
-,4.7448,0,19,cbr,,,,,,
r,4.7468,0,19,cbr,,,,,,
+,4.748,0,19,cbr,,,,,,
+,4.752,0,19,cbr,,,,,,
d,4.752,0,19,cbr,,,,,,
-,4.7528,0,19,cbr,,,,,,
r,4.7548,0,19,cbr,,,,,,
+,4.756,0,19,cbr,,,,,,
+,4.76,0,19,cbr,,,,,,
d,4.76,0,19,cbr,,,,,,
-,4.7608,0,19,cbr,,,,,,
r,4.7628,0,19,cbr,,,,,,
+,4.764,0,19,cbr,,,,,,
+,4.768,0,19,cbr,,,,,,
d,4.768,0,19,cbr,,,,,,
-,4.7688,0,19,cbr,,,,,,
r,4.7708,0,19,cbr,,,,,,
+,4.772,0,19,cbr,,,,,,
+,4.776,0,19,cbr,,,,,,
d,4.776,0,19,cbr,,,,,,
-,4.7768,0,19,cbr,,,,,,
r,4.7788,0,19,cbr,,,,,,
+,4.78,0,19,cbr,,,,,,
+,4.784,0,19,cbr,,,,,,
d,4.784,0,19,cbr,,,,,,
-,4.7848,0,19,cbr,,,,,,
r,4.7868,0,19,cbr,,,,,,
+,4.788,0,19,cbr,,,,,,
+,4.792,0,19,cbr,,,,,,
d,4.792,0,19,cbr,,,,,,
-,4.7928,0,19,cbr,,,,,,
r,4.7948,0,19,cbr,,,,,,
+,4.796,0,19,cbr,,,,,,
+,4.8,0,19,cbr,,,,,,
d,4.8,0,19,cbr,,,,,,
-,4.8008,0,19,cbr,,,,,,
r,4.8028,0,19,cbr,,,,,,
+,4.804,0,19,cbr,,,,,,
+,4.808,0,19,cbr,,,,,,
d,4.808,0,19,cbr,,,,,,
-,4.8088,0,19,cbr,,,,,,
r,4.8108,0,19,cbr,,,,,,
+,4.812,0,19,cbr,,,,,,
+,4.816,0,19,cbr,,,,,,
d,4.816,0,19,cbr,,,,,,
-,4.8168,0,19,cbr,,,,,,
r,4.8188,0,19,cbr,,,,,,
+,4.82,0,19,cbr,,,,,,
+,4.824,0,19,cbr,,,,,,
d,4.824,0,19,cbr,,,,,,
-,4.8248,0,19,cbr,,,,,,
r,4.8268,0,19,cbr,,,,,,
+,4.828,0,19,cbr,,,,,,
+,4.832,0,19,cbr,,,,,,
d,4.832,0,19,cbr,,,,,,
-,4.8328,0,19,cbr,,,,,,
r,4.8348,0,19,cbr,,,,,,
+,4.836,0,19,cbr,,,,,,
+,4.84,0,19,cbr,,,,,,
d,4.84,0,19,cbr,,,,,,
-,4.8408,0,19,cbr,,,,,,
r,4.8428,0,19,cbr,,,,,,
+,4.844,0,19,cbr,,,,,,
+,4.848,0,19,cbr,,,,,,
d,4.848,0,19,cbr,,,,,,
-,4.8488,0,19,cbr,,,,,,
r,4.8508,0,19,cbr,,,,,,
+,4.852,0,19,cbr,,,,,,
+,4.856,0,19,cbr,,,,,,
d,4.856,0,19,cbr,,,,,,
-,4.8568,0,19,cbr,,,,,,
r,4.8588,0,19,cbr,,,,,,
+,4.86,0,19,cbr,,,,,,
+,4.864,0,19,cbr,,,,,,
d,4.864,0,19,cbr,,,,,,
-,4.8648,0,19,cbr,,,,,,
r,4.8668,0,19,cbr,,,,,,
+,4.868,0,19,cbr,,,,,,
+,4.872,0,19,cbr,,,,,,
d,4.872,0,19,cbr,,,,,,
-,4.8728,0,19,cbr,,,,,,
r,4.8748,0,19,cbr,,,,,,
+,4.876,0,19,cbr,,,,,,
+,4.88,0,19,cbr,,,,,,
d,4.88,0,19,cbr,,,,,,
-,4.8808,0,19,cbr,,,,,,
r,4.8828,0,19,cbr,,,,,,
+,4.884,0,19,cbr,,,,,,
+,4.888,0,19,cbr,,,,,,
d,4.888,0,19,cbr,,,,,,
-,4.8888,0,19,cbr,,,,,,
r,4.8908,0,19,cbr,,,,,,
+,4.892,0,19,cbr,,,,,,
+,4.896,0,19,cbr,,,,,,
d,4.896,0,19,cbr,,,,,,
-,4.8968,0,19,cbr,,,,,,
r,4.8988,0,19,cbr,,,,,,
+,4.9,0,19,cbr,,,,,,
+,4.904,0,19,cbr,,,,,,
d,4.904,0,19,cbr,,,,,,
-,4.9048,0,19,cbr,,,,,,
r,4.9068,0,19,cbr,,,,,,
+,4.908,0,19,cbr,,,,,,
+,4.912,0,19,cbr,,,,,,
d,4.912,0,19,cbr,,,,,,
-,4.9128,0,19,cbr,,,,,,
r,4.9148,0,19,cbr,,,,,,
+,4.916,0,19,cbr,,,,,,
+,4.92,0,19,cbr,,,,,,
d,4.92,0,19,cbr,,,,,,
-,4.9208,0,19,cbr,,,,,,
r,4.9228,0,19,cbr,,,,,,
+,4.924,0,19,cbr,,,,,,
+,4.928,0,19,cbr,,,,,,
d,4.928,0,19,cbr,,,,,,
-,4.9288,0,19,cbr,,,,,,
r,4.9308,0,19,cbr,,,,,,
+,4.932,0,19,cbr,,,,,,
+,4.936,0,19,cbr,,,,,,
d,4.936,0,19,cbr,,,,,,
-,4.9368,0,19,cbr,,,,,,
r,4.9388,0,19,cbr,,,,,,
+,4.94,0,19,cbr,,,,,,
+,4.944,0,19,cbr,,,,,,
d,4.944,0,19,cbr,,,,,,
-,4.9448,0,19,cbr,,,,,,
r,4.9468,0,19,cbr,,,,,,
+,4.948,0,19,cbr,,,,,,
+,4.952,0,19,cbr,,,,,,
d,4.952,0,19,cbr,,,,,,
-,4.9528,0,19,cbr,,,,,,
r,4.9548,0,19,cbr,,,,,,
+,4.956,0,19,cbr,,,,,,
+,4.96,0,19,cbr,,,,,,
d,4.96,0,19,cbr,,,,,,
-,4.9608,0,19,cbr,,,,,,
r,4.9628,0,19,cbr,,,,,,
+,4.964,0,19,cbr,,,,,,
+,4.968,0,19,cbr,,,,,,
d,4.968,0,19,cbr,,,,,,
-,4.9688,0,19,cbr,,,,,,
r,4.9708,0,19,cbr,,,,,,
+,4.972,0,19,cbr,,,,,,
+,4.976,0,19,cbr,,,,,,
d,4.976,0,19,cbr,,,,,,
-,4.9768,0,19,cbr,,,,,,
r,4.9788,0,19,cbr,,,,,,
+,4.98,0,19,cbr,,,,,,
+,4.984,0,19,cbr,,,,,,
d,4.984,0,19,cbr,,,,,,
-,4.9848,0,19,cbr,,,,,,
r,4.9868,0,19,cbr,,,,,,
+,4.988,0,19,cbr,,,,,,
+,4.992,0,19,cbr,,,,,,
d,4.992,0,19,cbr,,,,,,
-,4.9928,0,19,cbr,,,,,,
r,4.9948,0,19,cbr,,,,,,
+,4.996,0,19,cbr,,,,,,
+,5,0,19,cbr,,,,,,
d,5,0,19,cbr,,,,,,
-,5.0008,0,19,cbr,,,,,,
r,5.0028,0,19,cbr,,,,,,
+,5.004,0,19,cbr,,,,,,
+,5.008,0,19,cbr,,,,,,
d,5.008,0,19,cbr,,,,,,
-,5.0088,0,19,cbr,,,,,,
r,5.0108,0,19,cbr,,,,,,
+,5.012,0,19,cbr,,,,,,
+,5.016,0,19,cbr,,,,,,
d,5.016,0,19,cbr,,,,,,
-,5.0168,0,19,cbr,,,,,,
r,5.0188,0,19,cbr,,,,,,
+,5.02,0,19,cbr,,,,,,
+,5.024,0,19,cbr,,,,,,
d,5.024,0,19,cbr,,,,,,
-,5.0248,0,19,cbr,,,,,,
r,5.0268,0,19,cbr,,,,,,
+,5.028,0,19,cbr,,,,,,
+,5.032,0,19,cbr,,,,,,
d,5.032,0,19,cbr,,,,,,
-,5.0328,0,19,cbr,,,,,,
r,5.0348,0,19,cbr,,,,,,
+,5.036,0,19,cbr,,,,,,
+,5.04,0,19,cbr,,,,,,
d,5.04,0,19,cbr,,,,,,
-,5.0408,0,19,cbr,,,,,,
r,5.0428,0,19,cbr,,,,,,
+,5.044,0,19,cbr,,,,,,
+,5.048,0,19,cbr,,,,,,
d,5.048,0,19,cbr,,,,,,
-,5.0488,0,19,cbr,,,,,,
r,5.0508,0,19,cbr,,,,,,
+,5.052,0,19,cbr,,,,,,
+,5.056,0,19,cbr,,,,,,
d,5.056,0,19,cbr,,,,,,
-,5.0568,0,19,cbr,,,,,,
r,5.0588,0,19,cbr,,,,,,
+,5.06,0,19,cbr,,,,,,
+,5.064,0,19,cbr,,,,,,
d,5.064,0,19,cbr,,,,,,
-,5.0648,0,19,cbr,,,,,,
r,5.0668,0,19,cbr,,,,,,
+,5.068,0,19,cbr,,,,,,
+,5.072,0,19,cbr,,,,,,
d,5.072,0,19,cbr,,,,,,
-,5.0728,0,19,cbr,,,,,,
r,5.0748,0,19,cbr,,,,,,
+,5.076,0,19,cbr,,,,,,
+,5.08,0,19,cbr,,,,,,
d,5.08,0,19,cbr,,,,,,
-,5.0808,0,19,cbr,,,,,,
r,5.0828,0,19,cbr,,,,,,
+,5.084,0,19,cbr,,,,,,
+,5.088,0,19,cbr,,,,,,
d,5.088,0,19,cbr,,,,,,
-,5.0888,0,19,cbr,,,,,,
r,5.0908,0,19,cbr,,,,,,
+,5.092,0,19,cbr,,,,,,
+,5.096,0,19,cbr,,,,,,
d,5.096,0,19,cbr,,,,,,
-,5.0968,0,19,cbr,,,,,,
r,5.0988,0,19,cbr,,,,,,
+,5.1,0,19,cbr,,,,,,
+,5.104,0,19,cbr,,,,,,
d,5.104,0,19,cbr,,,,,,
-,5.1048,0,19,cbr,,,,,,
r,5.1068,0,19,cbr,,,,,,
+,5.108,0,19,cbr,,,,,,
+,5.112,0,19,cbr,,,,,,
d,5.112,0,19,cbr,,,,,,
-,5.1128,0,19,cbr,,,,,,
r,5.1148,0,19,cbr,,,,,,
+,5.116,0,19,cbr,,,,,,
+,5.12,0,19,cbr,,,,,,
d,5.12,0,19,cbr,,,,,,
-,5.1208,0,19,cbr,,,,,,
r,5.1228,0,19,cbr,,,,,,
+,5.124,0,19,cbr,,,,,,
+,5.128,0,19,cbr,,,,,,
d,5.128,0,19,cbr,,,,,,
-,5.1288,0,19,cbr,,,,,,
r,5.1308,0,19,cbr,,,,,,
+,5.132,0,19,cbr,,,,,,
+,5.136,0,19,cbr,,,,,,
d,5.136,0,19,cbr,,,,,,
-,5.1368,0,19,cbr,,,,,,
r,5.1388,0,19,cbr,,,,,,
+,5.14,0,19,cbr,,,,,,
+,5.144,0,19,cbr,,,,,,
d,5.144,0,19,cbr,,,,,,
-,5.1448,0,19,cbr,,,,,,
r,5.1468,0,19,cbr,,,,,,
+,5.148,0,19,cbr,,,,,,
+,5.152,0,19,cbr,,,,,,
d,5.152,0,19,cbr,,,,,,
-,5.1528,0,19,cbr,,,,,,
r,5.1548,0,19,cbr,,,,,,
+,5.156,0,19,cbr,,,,,,
+,5.16,0,19,cbr,,,,,,
d,5.16,0,19,cbr,,,,,,
-,5.1608,0,19,cbr,,,,,,
r,5.1628,0,19,cbr,,,,,,
+,5.164,0,19,cbr,,,,,,
+,5.168,0,19,cbr,,,,,,
d,5.168,0,19,cbr,,,,,,
-,5.1688,0,19,cbr,,,,,,
r,5.1708,0,19,cbr,,,,,,
+,5.172,0,19,cbr,,,,,,
+,5.176,0,19,cbr,,,,,,
d,5.176,0,19,cbr,,,,,,
-,5.1768,0,19,cbr,,,,,,
r,5.1788,0,19,cbr,,,,,,
+,5.18,0,19,cbr,,,,,,
+,5.184,0,19,cbr,,,,,,
d,5.184,0,19,cbr,,,,,,
-,5.1848,0,19,cbr,,,,,,
r,5.1868,0,19,cbr,,,,,,
+,5.188,0,19,cbr,,,,,,
+,5.192,0,19,cbr,,,,,,
d,5.192,0,19,cbr,,,,,,
-,5.1928,0,19,cbr,,,,,,
r,5.1948,0,19,cbr,,,,,,
+,5.196,0,19,cbr,,,,,,
+,5.2,0,19,cbr,,,,,,
d,5.2,0,19,cbr,,,,,,
-,5.2008,0,19,cbr,,,,,,
r,5.2028,0,19,cbr,,,,,,
+,5.204,0,19,cbr,,,,,,
+,5.208,0,19,cbr,,,,,,
d,5.208,0,19,cbr,,,,,,
-,5.2088,0,19,cbr,,,,,,
r,5.2108,0,19,cbr,,,,,,
+,5.212,0,19,cbr,,,,,,
+,5.216,0,19,cbr,,,,,,
d,5.216,0,19,cbr,,,,,,
-,5.2168,0,19,cbr,,,,,,
r,5.2188,0,19,cbr,,,,,,
+,5.22,0,19,cbr,,,,,,
+,5.224,0,19,cbr,,,,,,
d,5.224,0,19,cbr,,,,,,
-,5.2248,0,19,cbr,,,,,,
r,5.2268,0,19,cbr,,,,,,
+,5.228,0,19,cbr,,,,,,
+,5.232,0,19,cbr,,,,,,
d,5.232,0,19,cbr,,,,,,
-,5.2328,0,19,cbr,,,,,,
r,5.2348,0,19,cbr,,,,,,
+,5.236,0,19,cbr,,,,,,
+,5.24,0,19,cbr,,,,,,
d,5.24,0,19,cbr,,,,,,
-,5.2408,0,19,cbr,,,,,,
r,5.2428,0,19,cbr,,,,,,
+,5.244,0,19,cbr,,,,,,
+,5.248,0,19,cbr,,,,,,
d,5.248,0,19,cbr,,,,,,
-,5.2488,0,19,cbr,,,,,,
r,5.2508,0,19,cbr,,,,,,
+,5.252,0,19,cbr,,,,,,
+,5.256,0,19,cbr,,,,,,
d,5.256,0,19,cbr,,,,,,
-,5.2568,0,19,cbr,,,,,,
r,5.2588,0,19,cbr,,,,,,
+,5.26,0,19,cbr,,,,,,
+,5.264,0,19,cbr,,,,,,
d,5.264,0,19,cbr,,,,,,
-,5.2648,0,19,cbr,,,,,,
r,5.2668,0,19,cbr,,,,,,
+,5.268,0,19,cbr,,,,,,
+,5.272,0,19,cbr,,,,,,
d,5.272,0,19,cbr,,,,,,
-,5.2728,0,19,cbr,,,,,,
r,5.2748,0,19,cbr,,,,,,
+,5.276,0,19,cbr,,,,,,
+,5.28,0,19,cbr,,,,,,
d,5.28,0,19,cbr,,,,,,
-,5.2808,0,19,cbr,,,,,,
r,5.2828,0,19,cbr,,,,,,
+,5.284,0,19,cbr,,,,,,
+,5.288,0,19,cbr,,,,,,
d,5.288,0,19,cbr,,,,,,
-,5.2888,0,19,cbr,,,,,,
r,5.2908,0,19,cbr,,,,,,
+,5.292,0,19,cbr,,,,,,
+,5.296,0,19,cbr,,,,,,
d,5.296,0,19,cbr,,,,,,
-,5.2968,0,19,cbr,,,,,,
r,5.2988,0,19,cbr,,,,,,
+,5.3,0,19,cbr,,,,,,
+,5.304,0,19,cbr,,,,,,
d,5.304,0,19,cbr,,,,,,
-,5.3048,0,19,cbr,,,,,,
r,5.3068,0,19,cbr,,,,,,
+,5.308,0,19,cbr,,,,,,
+,5.312,0,19,cbr,,,,,,
d,5.312,0,19,cbr,,,,,,
-,5.3128,0,19,cbr,,,,,,
r,5.3148,0,19,cbr,,,,,,
+,5.316,0,19,cbr,,,,,,
+,5.32,0,19,cbr,,,,,,
d,5.32,0,19,cbr,,,,,,
-,5.3208,0,19,cbr,,,,,,
r,5.3228,0,19,cbr,,,,,,
+,5.324,0,19,cbr,,,,,,
+,5.328,0,19,cbr,,,,,,
d,5.328,0,19,cbr,,,,,,
-,5.3288,0,19,cbr,,,,,,
r,5.3308,0,19,cbr,,,,,,
+,5.332,0,19,cbr,,,,,,
+,5.336,0,19,cbr,,,,,,
d,5.336,0,19,cbr,,,,,,
-,5.3368,0,19,cbr,,,,,,
r,5.3388,0,19,cbr,,,,,,
+,5.34,0,19,cbr,,,,,,
+,5.344,0,19,cbr,,,,,,
d,5.344,0,19,cbr,,,,,,
-,5.3448,0,19,cbr,,,,,,
r,5.3468,0,19,cbr,,,,,,
+,5.348,0,19,cbr,,,,,,
+,5.352,0,19,cbr,,,,,,
d,5.352,0,19,cbr,,,,,,
-,5.3528,0,19,cbr,,,,,,
r,5.3548,0,19,cbr,,,,,,
+,5.356,0,19,cbr,,,,,,
+,5.36,0,19,cbr,,,,,,
d,5.36,0,19,cbr,,,,,,
-,5.3608,0,19,cbr,,,,,,
r,5.3628,0,19,cbr,,,,,,
+,5.364,0,19,cbr,,,,,,
+,5.368,0,19,cbr,,,,,,
d,5.368,0,19,cbr,,,,,,
-,5.3688,0,19,cbr,,,,,,
r,5.3708,0,19,cbr,,,,,,
+,5.372,0,19,cbr,,,,,,
+,5.376,0,19,cbr,,,,,,
d,5.376,0,19,cbr,,,,,,
-,5.3768,0,19,cbr,,,,,,
r,5.3788,0,19,cbr,,,,,,
+,5.38,0,19,cbr,,,,,,
+,5.384,0,19,cbr,,,,,,
d,5.384,0,19,cbr,,,,,,
-,5.3848,0,19,cbr,,,,,,
r,5.3868,0,19,cbr,,,,,,
+,5.388,0,19,cbr,,,,,,
+,5.392,0,19,cbr,,,,,,
d,5.392,0,19,cbr,,,,,,
-,5.3928,0,19,cbr,,,,,,
r,5.3948,0,19,cbr,,,,,,
+,5.396,0,19,cbr,,,,,,
+,5.4,0,19,cbr,,,,,,
d,5.4,0,19,cbr,,,,,,
-,5.4008,0,19,cbr,,,,,,
r,5.4028,0,19,cbr,,,,,,
+,5.404,0,19,cbr,,,,,,
d,5.404,0,19,cbr,,,,,,
+,5.408,0,19,cbr,,,,,,
d,5.408,0,19,cbr,,,,,,
-,5.4088,0,19,cbr,,,,,,
r,5.4108,0,19,cbr,,,,,,
+,5.412,0,19,cbr,,,,,,
+,5.416,0,19,cbr,,,,,,
d,5.416,0,19,cbr,,,,,,
-,5.4168,0,19,cbr,,,,,,
r,5.4188,0,19,cbr,,,,,,
+,5.42,0,19,cbr,,,,,,
d,5.42,0,19,cbr,,,,,,
+,5.424,0,19,cbr,,,,,,
d,5.424,0,19,cbr,,,,,,
-,5.4248,0,19,cbr,,,,,,
r,5.4268,0,19,cbr,,,,,,
+,5.428,0,19,cbr,,,,,,
d,5.428,0,19,cbr,,,,,,
+,5.432,0,19,cbr,,,,,,
d,5.432,0,19,cbr,,,,,,
-,5.4328,0,19,cbr,,,,,,
r,5.4348,0,19,cbr,,,,,,
+,5.436,0,19,cbr,,,,,,
d,5.436,0,19,cbr,,,,,,
+,5.44,0,19,cbr,,,,,,
d,5.44,0,19,cbr,,,,,,
-,5.4408,0,19,cbr,,,,,,
r,5.4428,0,19,cbr,,,,,,
+,5.444,0,19,cbr,,,,,,
d,5.444,0,19,cbr,,,,,,
+,5.448,0,19,cbr,,,,,,
d,5.448,0,19,cbr,,,,,,
-,5.4488,0,19,cbr,,,,,,
r,5.4508,0,19,cbr,,,,,,
+,5.452,0,19,cbr,,,,,,
d,5.452,0,19,cbr,,,,,,
+,5.456,0,19,cbr,,,,,,
d,5.456,0,19,cbr,,,,,,
-,5.4568,0,19,cbr,,,,,,
r,5.4588,0,19,cbr,,,,,,
+,5.46,0,19,cbr,,,,,,
+,5.464,0,19,cbr,,,,,,
d,5.464,0,19,cbr,,,,,,
-,5.4648,0,19,cbr,,,,,,
r,5.4668,0,19,cbr,,,,,,
+,5.468,0,19,cbr,,,,,,
+,5.472,0,19,cbr,,,,,,
d,5.472,0,19,cbr,,,,,,
-,5.4728,0,19,cbr,,,,,,
r,5.4748,0,19,cbr,,,,,,
+,5.476,0,19,cbr,,,,,,
+,5.48,0,19,cbr,,,,,,
d,5.48,0,19,cbr,,,,,,
-,5.4808,0,19,cbr,,,,,,
r,5.4828,0,19,cbr,,,,,,
+,5.484,0,19,cbr,,,,,,
+,5.488,0,19,cbr,,,,,,
d,5.488,0,19,cbr,,,,,,
-,5.4888,0,19,cbr,,,,,,
r,5.4908,0,19,cbr,,,,,,
+,5.492,0,19,cbr,,,,,,
+,5.496,0,19,cbr,,,,,,
d,5.496,0,19,cbr,,,,,,
-,5.4968,0,19,cbr,,,,,,
r,5.4988,0,19,cbr,,,,,,
+,5.5,0,19,cbr,,,,,,
-,5.5048,0,19,cbr,,,,,,
r,5.5068,0,19,cbr,,,,,,
-,5.5128,0,19,cbr,,,,,,
r,5.5148,0,19,cbr,,,,,,
-,5.5208,0,19,cbr,,,,,,
r,5.5228,0,19,cbr,,,,,,
-,5.5288,0,19,cbr,,,,,,
r,5.5308,0,19,cbr,,,,,,
-,5.5368,0,19,cbr,,,,,,
r,5.5388,0,19,cbr,,,,,,
-,5.5448,0,19,cbr,,,,,,
r,5.5468,0,19,cbr,,,,,,
-,5.5528,0,19,cbr,,,,,,
r,5.5548,0,19,cbr,,,,,,
-,5.5608,0,19,cbr,,,,,,
r,5.5628,0,19,cbr,,,,,,
-,5.5688,0,19,cbr,,,,,,
r,5.5708,0,19,cbr,,,,,,
-,5.5768,0,19,cbr,,,,,,
r,5.5788,0,19,cbr,,,,,,
-,5.5848,0,19,cbr,,,,,,
r,5.5868,0,19,cbr,,,,,,
-,5.5928,0,19,cbr,,,,,,
r,5.5948,0,19,cbr,,,,,,
-,5.6008,0,19,cbr,,,,,,
r,5.6028,0,19,cbr,,,,,,
-,5.6088,0,19,cbr,,,,,,
r,5.6108,0,19,cbr,,,,,,
-,5.6168,0,19,cbr,,,,,,
r,5.6188,0,19,cbr,,,,,,
-,5.6248,0,19,cbr,,,,,,
r,5.6268,0,19,cbr,,,,,,
-,5.6328,0,19,cbr,,,,,,
r,5.6348,0,19,cbr,,,,,,
-,5.6408,0,19,cbr,,,,,,
r,5.6428,0,19,cbr,,,,,,
-,5.6488,0,19,cbr,,,,,,
r,5.6508,0,19,cbr,,,,,,
-,5.6568,0,19,cbr,,,,,,
r,5.6588,0,19,cbr,,,,,,
-,5.6648,0,19,cbr,,,,,,
r,5.6668,0,19,cbr,,,,,,
-,5.6728,0,19,cbr,,,,,,
r,5.6748,0,19,cbr,,,,,,
-,5.6808,0,19,cbr,,,,,,
r,5.6828,0,19,cbr,,,,,,
-,5.6888,0,19,cbr,,,,,,
r,5.6908,0,19,cbr,,,,,,
-,5.6968,0,19,cbr,,,,,,
r,5.6988,0,19,cbr,,,,,,
-,5.7048,0,19,cbr,,,,,,
r,5.7068,0,19,cbr,,,,,,
-,5.7128,0,19,cbr,,,,,,
r,5.7148,0,19,cbr,,,,,,
-,5.7208,0,19,cbr,,,,,,
r,5.7228,0,19,cbr,,,,,,
-,5.7288,0,19,cbr,,,,,,
r,5.7308,0,19,cbr,,,,,,
-,5.7368,0,19,cbr,,,,,,
r,5.7388,0,19,cbr,,,,,,
-,5.7448,0,19,cbr,,,,,,
r,5.7468,0,19,cbr,,,,,,
-,5.7528,0,19,cbr,,,,,,
r,5.7548,0,19,cbr,,,,,,
-,5.7608,0,19,cbr,,,,,,
r,5.7628,0,19,cbr,,,,,,
-,5.7688,0,19,cbr,,,,,,
r,5.7708,0,19,cbr,,,,,,
-,5.7768,0,19,cbr,,,,,,
r,5.7788,0,19,cbr,,,,,,
-,5.7848,0,19,cbr,,,,,,
r,5.7868,0,19,cbr,,,,,,
-,5.7936,0,19,cbr,,,,,,
r,5.7948,0,19,cbr,,,,,,
-,5.8024,0,19,cbr,,,,,,
r,5.8028,0,19,cbr,,,,,,
-,5.8104,0,19,cbr,,,,,,
r,5.8116,0,19,cbr,,,,,,
-,5.8184,0,19,cbr,,,,,,
r,5.8204,0,19,cbr,,,,,,
-,5.8264,0,19,cbr,,,,,,
r,5.8284,0,19,cbr,,,,,,
-,5.8344,0,19,cbr,,,,,,
r,5.8364,0,19,cbr,,,,,,
-,5.8424,0,19,cbr,,,,,,
r,5.8444,0,19,cbr,,,,,,
r,5.8524,0,19,cbr,,,,,,
r,5.8604,0,19,cbr,,,,,,
